<?xml version="1.0" encoding="utf-8"?>
<!-- Generator: Adobe Illustrator 20.0.0, SVG Export Plug-In . SVG Version: 6.00 Build 0)  -->
<svg version="1.1" id="Layer_1" xmlns="http://www.w3.org/2000/svg" xmlns:xlink="http://www.w3.org/1999/xlink" x="0px" y="0px"
	 viewBox="0 0 890 778.8" style="enable-background:new 0 0 890 778.8;" xml:space="preserve">
<style type="text/css">
	.st0{fill:none;stroke:#BCBEC0;stroke-miterlimit:10;}
	.st1{fill:#FFFFFF;}
	.st2{fill:#BCBEC0;stroke:#BCBEC0;stroke-width:0.7087;stroke-miterlimit:10;}
	.st3{fill:#BCBEC0;}
	.st4{opacity:0.22;}
	.st5{fill:#FFFFFF;stroke:#FFFFFF;stroke-width:4.252;stroke-miterlimit:10;}
</style>
<g>
	<line class="st0" x1="588.7" y1="553.6" x2="590.6" y2="551.5"/>
	<line class="st0" x1="601.3" y1="556" x2="581.1" y2="537.7"/>
	<path class="st0" d="M574.5,544.9l8.5-9.3c0.8-0.9,2.1-0.9,3-0.1l17,15.5c0.9,0.8,0.9,2.1,0.1,3l-13.6,15l-20.2-18.3l2.3-2.6
		L574.5,544.9z"/>
	<path class="st0" d="M591.1,552l3.2,4.8l-5.1-2.7L574,540.3c-0.6-0.5-0.6-1.4-0.1-2l0,0c0.5-0.6,1.4-0.6,2-0.1L591.1,552z"/>
	<line class="st0" x1="576.6" y1="542.6" x2="578.5" y2="540.6"/>
</g>
<g>
	<g>
		<path class="st0" d="M438.1,573.2c0,0,0-3.5,0-4.4s-1.1-3.8-1.2-4c0,0-3-5.1-1.4-8.8c0,0,0.7-2.3,3.2-3.6c2.8-1.5,5.9-1.5,8.7,0.3
			c2.9,1.8,5,11.2,5,11.2h-2.1c0,0,0,3.2,0,3.3c0.3,1.8-2.1,1.8-2.1,1.8h-3.6"/>
		<line class="st0" x1="445.9" y1="573.2" x2="445.9" y2="568.8"/>
	</g>
	<g>
		<path class="st0" d="M469.2,573.2c0,0,0-3.5,0-4.4s1.1-3.8,1.2-4c0,0,3-5.1,1.4-8.8c0,0-0.7-2.3-3.2-3.6c-2.8-1.5-5.9-1.5-8.7,0.3
			c-2.9,1.8-5,11.2-5,11.2h2.1c0,0,0,3.2,0,3.3c-0.3,1.8,2.1,1.8,2.1,1.8h3.6"/>
		<line class="st0" x1="461.3" y1="573.2" x2="461.3" y2="568.8"/>
	</g>
</g>
<g>
	<path class="st0" d="M609.6,706.6H600c0-7.1,0-4,0-11h9.6C609.6,699.6,609.6,702.5,609.6,706.6z"/>
	<rect x="604.4" y="693.7" class="st0" width="0.8" height="0.8"/>
	<path class="st0" d="M607.2,709.6h-4.7c-2.2,0-4-1.8-4-4v-9.1c0-2.2,1.8-4,4-4h4.7c2.2,0,4,1.8,4,4v9.1
		C611.1,707.8,609.4,709.6,607.2,709.6z"/>
	<polyline class="st0" points="611.1,693.6 611.1,683.1 582.1,683.1 582.1,701.2 598.4,701.2 	"/>
	<line class="st0" x1="582" y1="698.6" x2="598.5" y2="698.6"/>
	<line class="st0" x1="592.5" y1="701.3" x2="592.5" y2="704.5"/>
	<line class="st0" x1="589.8" y1="704.5" x2="598.4" y2="704.5"/>
</g>
<g>
	<path class="st1" d="M411.2,683.6c0.5,0.7,1.4,1.9,1.9,2.8c1.2,2.1,1.3,4-0.9,5.2c-1.5,0.8-2.7,0.6-3.6-0.2
		c-0.8,1.2-1.8,2.8-2.6,4.2l0,0l-1.2-2.1c0.8-1.3,1.7-2.7,2.5-3.8c-0.2-0.4-0.4-0.8-0.6-1.2l-3.6,2l-1-1.8L411.2,683.6z
		 M408.6,688.9c0.6,1.1,1.3,1.6,2.4,1c1.1-0.6,1.1-1.4,0.4-2.6c-0.2-0.3-0.5-0.8-0.7-1.1l-2.7,1.5
		C408.2,688.1,408.5,688.6,408.6,688.9z"/>
	<path class="st1" d="M414.8,695.1c1.1,1.6,0.7,3.2-1.2,4.4c-0.3,0.2-0.8,0.5-1.2,0.6l-2.3-3.6c-0.8,0.7-1,1.4-0.4,2.2
		c0.4,0.6,1,1.1,1.5,1.5l-1,1.3c-0.7-0.5-1.4-1.1-1.9-2c-1.3-2-0.9-3.7,1.4-5.1C411.8,693.1,413.7,693.3,414.8,695.1z M412.8,697.7
		c0.8-0.5,1-1.1,0.6-1.8c-0.5-0.7-1.1-0.7-1.9-0.3L412.8,697.7z"/>
	<path class="st1" d="M416,700.1l-0.7-0.9l1.2-0.8l0.7,0.9l0.5-0.3c1.5-1.1,2.8-0.7,3.8,0.7c0.3,0.4,0.5,0.7,0.6,1l-1.4,0.9
		c-0.1-0.2-0.3-0.6-0.5-0.8c-0.5-0.6-0.8-0.7-1.4-0.3l-0.4,0.3l0.9,1.3L418,703l-0.9-1.3l-4.9,3.5l-1.1-1.6L416,700.1z"/>
	<path class="st1" d="M420.1,702.9l0.9,1.1l-0.5,0.7c0.9,0.1,1.6,0.4,2.1,1.1c0.2,0.2,0.4,0.5,0.5,0.8l-1.5,1
		c-0.2-0.3-0.3-0.5-0.5-0.7c-0.5-0.6-1-0.9-1.6-1l-4.2,3.3l-1.2-1.5L420.1,702.9z"/>
	<path class="st1" d="M425.3,709.1c1.3,1.5,1.1,3.1-0.6,4.5c-0.3,0.2-0.7,0.6-1.1,0.8l-2.8-3.2c-0.7,0.8-0.8,1.5-0.1,2.3
		c0.5,0.5,1.2,1,1.7,1.3l-0.8,1.4c-0.8-0.4-1.5-0.9-2.2-1.7c-1.5-1.8-1.4-3.6,0.7-5.3C422.1,707.5,423.9,707.4,425.3,709.1z
		 M423.6,712c0.7-0.6,0.8-1.2,0.3-1.8s-1.2-0.5-1.9,0L423.6,712z"/>
	<path class="st1" d="M423.6,716.2c0.3,0.5,0.9,1.2,1.3,1.7c0.6,0.6,1.1,0.9,1.4,0.6c0.3-0.3,0-0.9-0.5-1.9
		c-0.6-1.2-0.7-2.2,0.2-3.1c1.1-1,2.5-0.8,3.9,0.7c0.5,0.5,1,1.2,1.3,1.7l-1.4,1c-0.3-0.5-0.8-1.1-1.2-1.5c-0.6-0.6-1-0.7-1.2-0.5
		c-0.4,0.3,0.1,0.9,0.5,1.9c0.6,1.3,0.7,2.2-0.2,3.1c-1.1,1-2.5,0.9-4.1-0.8c-0.5-0.6-1.1-1.3-1.5-1.9L423.6,716.2z"/>
	<path class="st1" d="M434.4,714.7l1.4,1.3l-2.3,2.4c0.6,0.2,1.2,0.5,1.7,0.9c1.3,1.2,1.1,2.6,0,3.7l-3.5,3.8l-1.4-1.3l3.3-3.6
		c0.5-0.5,0.6-1.1,0-1.6c-0.4-0.3-0.9-0.6-1.3-0.7l-3.9,4.2l-1.4-1.3L434.4,714.7z"/>
	<path class="st1" d="M441.5,728.8c0.3,0.3,0.6,0.5,0.8,0.8l0.2-0.2c0.5-0.7,0.5-1.2-0.3-1.8c-0.5-0.4-1.3-0.8-1.8-1.1l0.8-1.5
		c0.6,0.3,1.5,0.7,2.2,1.3c1.6,1.2,1.9,2.6,0.8,4.1l-3.1,4l-1.1-0.9l0.2-0.6c-0.6,0-1.4-0.1-2.1-0.7c-1.1-0.9-1.5-2.3-0.6-3.5
		C438.4,727.5,439.8,727.5,441.5,728.8z M439.3,731.2c0.4,0.3,1,0.5,1.3,0.5l0.8-1.1c-0.3-0.2-0.6-0.5-0.8-0.7
		c-0.6-0.5-1.2-0.6-1.6,0C438.7,730.3,438.8,730.8,439.3,731.2z"/>
	<path class="st1" d="M447,729.3l1.1,0.8l-0.2,0.6c0.8,0,1.6,0.2,2.3,0.7c1.5,1,1.4,2.4,0.6,3.6l-2.9,4.2l-1.6-1.1l2.8-4
		c0.4-0.6,0.4-1.1-0.2-1.6c-0.4-0.3-1-0.4-1.4-0.5l-3.2,4.7l-1.6-1.1L447,729.3z"/>
	<path class="st1" d="M451.2,736.9c1.4-2.3,3.1-2.9,4.9-1.8c0.4,0.2,0.8,0.5,1,0.8l1.5-2.5l1.7,1l-5.5,9.1l-1.2-0.7l0.1-0.5
		c-0.6,0.1-1.3,0-2-0.4C450.2,740.8,449.9,739.2,451.2,736.9z M454.2,740.9l2.1-3.5c-0.2-0.2-0.6-0.5-0.8-0.6
		c-1-0.6-1.7-0.2-2.5,1.2c-0.8,1.4-0.9,2.1,0,2.6C453.3,740.7,453.8,740.9,454.2,740.9z"/>
	<path class="st1" d="M465.1,736.9l5.8,2.8l-0.8,1.6l-3.9-1.9l-1.1,2.2l3.4,1.6l-0.8,1.6l-3.4-1.6l-1.2,2.5l3.9,1.9l-0.8,1.6
		l-5.8-2.8L465.1,736.9z"/>
	<path class="st1" d="M471,747.1c-0.3-1.3-0.6-2.8-0.8-4.3l1.9,0.8c0.1,0.9,0.3,1.9,0.5,2.7h0.1c0.7-0.5,1.5-1,2.3-1.6l1.8,0.8
		c-1.2,0.9-2.5,1.8-3.6,2.5c0.3,1.3,0.6,3.1,0.8,4.5l-1.9-0.8c-0.1-0.9-0.3-2-0.5-2.9h-0.1c-0.8,0.5-1.7,1.2-2.4,1.7l-1.9-0.8
		C468.5,748.8,469.9,747.8,471,747.1z"/>
	<path class="st1" d="M477.6,747.4l-1.1-0.4l0.5-1.4l1.2,0.3l0.9-2l1.6,0.6l-0.7,2l1.8,0.6l-0.5,1.5l-1.8-0.6l-1.2,3.5
		c-0.2,0.5-0.1,0.7,0.3,0.9c0.3,0.1,0.8,0.2,1.1,0.2l-0.1,1.6c-0.5,0-1.2,0-1.9-0.3c-1.2-0.4-1.9-1.4-1.3-2.9L477.6,747.4z"/>
	<path class="st1" d="M485.6,748.1c1.9,0.6,2.6,2,2,4.1c-0.1,0.4-0.3,0.9-0.5,1.2l-4.1-1.2c-0.2,1.1,0.2,1.7,1.1,2
		c0.7,0.2,1.5,0.2,2.1,0.2l0.1,1.7c-0.9,0.1-1.8,0-2.8-0.2c-2.2-0.7-3.1-2.3-2.3-4.8C482.1,748.6,483.6,747.5,485.6,748.1z
		 M485.8,751.5c0.2-0.9,0-1.5-0.7-1.7c-0.8-0.2-1.3,0.2-1.6,1L485.8,751.5z"/>
	<path class="st1" d="M489.7,749.5l1.3,0.3v0.6c0.7-0.3,1.6-0.4,2.4-0.2c1.8,0.4,2.2,1.7,1.9,3.1l-1.2,5l-1.9-0.4l1.1-4.8
		c0.2-0.7,0-1.2-0.8-1.4c-0.5-0.1-1.1-0.1-1.4,0l-1.3,5.6l-1.9-0.4L489.7,749.5z"/>
	<path class="st1" d="M496.4,755c0.5-2.6,1.8-3.8,3.9-3.4c0.5,0.1,0.9,0.2,1.3,0.4l0.5-2.9l1.9,0.3l-1.8,10.5l-1.4-0.2l-0.1-0.5
		c-0.6,0.3-1.2,0.5-2,0.3C496.8,759,495.9,757.6,496.4,755z M500.6,757.6l0.7-4.1c-0.3-0.1-0.7-0.2-1-0.3c-1.2-0.2-1.6,0.4-1.9,2
		s0,2.3,0.9,2.5C499.7,757.8,500.2,757.8,500.6,757.6z"/>
	<path class="st1" d="M564,743.7c0.9-0.6,2-1.1,2.9-1.4c3.4-1.3,5.5-0.2,6.8,3.2s0.6,5.7-2.9,7c-0.7,0.3-1.9,0.7-3,0.9L564,743.7z
		 M570.1,750.7c2.3-0.9,2.5-2.2,1.6-4.5s-2-3.2-4.2-2.3c-0.3,0.1-0.7,0.3-1,0.5l2.6,6.7C569.5,751,569.9,750.9,570.1,750.7z"/>
	<path class="st1" d="M572.9,739.9l1.8-0.8l0.8,1.7l-1.8,0.8L572.9,739.9z M574.1,742.7l1.8-0.8l3.1,6.9l-1.8,0.8L574.1,742.7z"/>
	<path class="st1" d="M583.8,748.1c0.7-0.3,1.3-0.8,0.8-1.8l-0.2-0.5c-0.3,0.4-0.7,0.7-1.3,1c-1.8,0.9-3.3,0.1-4.4-2.1
		c-1.3-2.5-0.7-4.1,1.4-5.1c1-0.5,2.1-0.7,2.9-0.8l3.3,6.5c1.1,2.2,0.1,3.4-1.7,4.3c-0.7,0.4-1.4,0.6-2,0.8l-0.6-1.6
		C582.4,748.7,583.2,748.4,583.8,748.1z M583.6,744.4l-1.8-3.6c-0.3,0.1-0.7,0.2-1,0.4c-1,0.5-1.1,1.2-0.4,2.8
		c0.7,1.4,1.3,1.8,2.2,1.3C583.1,745,583.4,744.7,583.6,744.4z"/>
	<path class="st1" d="M582.8,735l1.7-1l0.9,1.6l-1.7,1L582.8,735z M584.2,737.6l1.7-1l3.7,6.6l-1.7,1L584.2,737.6z"/>
	<path class="st1" d="M588.5,737l-1,0.6l-0.8-1.2l1-0.7l-1-2l1.5-0.9l1.1,1.8l1.6-1l0.8,1.4l-1.6,1l2,3.2c0.3,0.5,0.5,0.5,0.9,0.3
		c0.3-0.2,0.6-0.5,0.8-0.8l1.2,1.1c-0.3,0.4-0.8,0.9-1.4,1.3c-1.1,0.7-2.3,0.6-3.1-0.8L588.5,737z"/>
	<path class="st1" d="M595.9,733.9c0.3-0.2,0.6-0.4,1-0.6l-0.1-0.2c-0.5-0.7-1-0.8-1.8-0.2c-0.5,0.3-1.2,1-1.6,1.4l-1.2-1.2
		c0.5-0.5,1.2-1.2,1.9-1.7c1.7-1.1,3.1-1.1,4.1,0.5l2.9,4.2l-1.1,0.8l-0.5-0.4c-0.2,0.5-0.5,1.3-1.3,1.8c-1.2,0.8-2.6,0.8-3.5-0.5
		C593.7,736.4,594.2,735.1,595.9,733.9z M597.6,736.7c0.4-0.3,0.7-0.8,0.9-1.1l-0.8-1.1c-0.3,0.2-0.7,0.4-0.9,0.5
		c-0.7,0.5-0.9,1-0.5,1.5C596.5,737,597.1,737.1,597.6,736.7z"/>
	<path class="st1" d="M596.3,726.3l1.6-1.2l6.4,8.5l-1.6,1.2L596.3,726.3z"/>
	<path class="st1" d="M602.3,721.9c0.5-0.6,1.5-1.7,2.3-2.5c1.8-1.6,3.6-2.1,5.3-0.2c1.1,1.3,1.1,2.5,0.6,3.6
		c1.3,0.6,3.1,1.2,4.7,1.7l0,0l-1.8,1.6c-1.4-0.5-3-1.1-4.3-1.7c-0.4,0.3-0.7,0.6-1,0.8l2.7,3.1l-1.6,1.4L602.3,721.9z M607.9,723.3
		c1-0.9,1.3-1.6,0.5-2.6s-1.6-0.7-2.6,0.1c-0.3,0.3-0.7,0.6-0.9,0.9l2.1,2.4C607.3,723.9,607.7,723.5,607.9,723.3z"/>
	<path class="st1" d="M612.7,716c1.4-1.4,3-1.3,4.6,0.2c0.3,0.3,0.6,0.7,0.8,1l-3,3c0.8,0.7,1.5,0.6,2.3-0.1
		c0.5-0.5,0.9-1.2,1.2-1.8l1.5,0.7c-0.3,0.8-0.8,1.6-1.5,2.3c-1.6,1.6-3.4,1.6-5.3-0.3C611.4,719.3,611.2,717.5,612.7,716z
		 M615.7,717.4c-0.7-0.7-1.3-0.7-1.9-0.2c-0.6,0.6-0.4,1.2,0.1,1.9L615.7,717.4z"/>
	<path class="st1" d="M619.9,717.2c0.5-0.4,1.2-0.9,1.6-1.5c0.6-0.6,0.8-1.1,0.5-1.4c-0.3-0.3-0.8,0.1-1.9,0.7
		c-1.2,0.6-2.1,0.9-3.1,0c-1.1-1-1-2.5,0.4-4c0.5-0.5,1.1-1,1.6-1.4l1.1,1.3c-0.5,0.4-1.1,0.9-1.5,1.3c-0.6,0.6-0.7,1-0.4,1.3
		c0.4,0.3,0.9-0.2,1.8-0.7c1.3-0.7,2.2-0.8,3.1,0c1.1,1,1.1,2.4-0.5,4.1c-0.5,0.6-1.2,1.2-1.8,1.6L619.9,717.2z"/>
	<path class="st1" d="M621.7,706c1.6-2,3.4-1.7,5.3-0.2s2.5,3.2,0.9,5.2s-3.4,1.7-5.3,0.2C620.7,709.6,620.1,707.9,621.7,706z
		 M626.6,709.9c0.8-1,0.2-1.8-0.8-2.6s-1.9-1.3-2.7-0.3c-0.8,1-0.2,1.8,0.8,2.6S625.7,710.9,626.6,709.9z"/>
	<path class="st1" d="M624.7,702.5l1.1-1.6l4,2.8c0.6,0.4,1.1,0.4,1.6-0.2c0.3-0.4,0.5-1,0.5-1.4l-4.6-3.3l1.1-1.6l6.2,4.4l-0.8,1.1
		l-0.6-0.2c0,0.8-0.3,1.6-0.7,2.3c-1,1.5-2.4,1.4-3.6,0.5L624.7,702.5z"/>
	<path class="st1" d="M629.3,695.8l0.7-1.2l0.8,0.3c-0.2-0.9-0.1-1.7,0.3-2.4c0.1-0.2,0.4-0.5,0.5-0.7l1.4,1.1
		c-0.2,0.3-0.4,0.5-0.5,0.7c-0.4,0.7-0.5,1.2-0.4,1.8l4.5,2.9l-1,1.6L629.3,695.8z"/>
	<path class="st1" d="M633.6,688.5c0.3-0.6,0.7-1,1.2-1.5l1.3,1c-0.3,0.4-0.7,0.9-1,1.4c-0.7,1.2-0.4,1.8,1.1,2.7
		c1.3,0.7,2.1,0.8,2.7-0.2c0.3-0.6,0.6-1.4,0.7-1.9l1.6,0.4c-0.1,0.8-0.4,1.7-0.8,2.5c-1.2,2.1-2.9,2.3-5.2,1
		C633,692.4,632.3,690.8,633.6,688.5z"/>
	<path class="st1" d="M636.5,683.2c0.9-1.8,2.5-2.2,4.4-1.2c0.3,0.2,0.8,0.4,1.1,0.7l-1.9,3.8c1,0.4,1.7,0.1,2.1-0.8
		c0.3-0.6,0.5-1.5,0.6-2.1l1.7,0.2c-0.1,0.9-0.3,1.8-0.7,2.7c-1,2.1-2.8,2.6-5.1,1.4C636.2,686.8,635.5,685.1,636.5,683.2z
		 M639.8,683.6c-0.9-0.4-1.5-0.3-1.8,0.4c-0.4,0.8,0,1.3,0.7,1.8L639.8,683.6z"/>
	<path class="st1" d="M643.7,682c0.4-0.5,0.8-1.3,1.1-1.9c0.3-0.8,0.4-1.3,0-1.5s-0.8,0.4-1.6,1.2c-0.9,1-1.8,1.5-2.9,1
		c-1.4-0.6-1.7-2-0.9-3.9c0.3-0.6,0.7-1.3,1.1-1.9l1.4,0.9c-0.3,0.5-0.7,1.2-1,1.7c-0.3,0.8-0.3,1.2,0,1.3c0.5,0.2,0.8-0.5,1.5-1.2
		c1-1,1.8-1.5,3-1c1.4,0.6,1.8,1.9,0.9,4.1c-0.3,0.7-0.8,1.5-1.2,2.1L643.7,682z"/>
</g>
<g>
	<path class="st1" d="M549.2,507.8c0.7,0.3,1.8,0.8,2.6,1c1.4,0.4,2.2,0,2.4-0.8c0.2-0.8-0.3-1.1-1.7-2.1c-1.3-0.9-2.5-1.8-2.1-3.6
		c0.5-1.8,2.1-2.7,4.7-2c0.8,0.2,1.7,0.6,2.6,1L557,503c-0.6-0.3-1.6-0.7-2.4-0.9c-0.9-0.2-1.8-0.2-2,0.6c-0.2,0.9,0.7,1.3,1.8,2.1
		c1.2,0.8,2.4,1.8,1.9,3.7s-2.2,2.8-4.9,2.1c-0.9-0.2-2-0.7-2.9-1L549.2,507.8z"/>
	<path class="st1" d="M558.6,504.4l1.9,0.6l-1.5,4.7c-0.2,0.7-0.1,1.2,0.7,1.5c0.5,0.2,1,0.1,1.4,0.1l1.7-5.4l1.9,0.6l-2.3,7.3
		l-1.3-0.4v-0.6c-0.8,0.2-1.6,0.2-2.4,0c-1.7-0.5-2.1-1.9-1.6-3.3L558.6,504.4z"/>
	<path class="st1" d="M564.6,517.6l-1.8-0.7l3.8-9.9l1.3,0.5v0.6c0.6-0.2,1.3-0.2,2.2,0.1c1.7,0.7,2.2,2.3,1.3,4.7
		c-1,2.5-2.5,3.3-4.5,2.6c-0.4-0.2-0.9-0.4-1.2-0.6L564.6,517.6z M567.2,513.8c1.1,0.4,1.7,0,2.3-1.6c0.6-1.6,0.5-2.3-0.4-2.6
		c-0.5-0.2-0.9-0.2-1.3-0.2l-1.5,3.8C566.6,513.5,566.9,513.7,567.2,513.8z"/>
	<path class="st1" d="M571.5,520.4l-1.8-0.8l4.4-9.6l1.3,0.6v0.6c0.6-0.1,1.3-0.2,2.2,0.2c1.7,0.8,2.1,2.4,1,4.8
		c-1.1,2.5-2.7,3.2-4.6,2.3c-0.4-0.2-0.8-0.5-1.2-0.7L571.5,520.4z M574.3,516.8c1.1,0.5,1.7,0.1,2.4-1.4c0.7-1.5,0.7-2.2-0.2-2.7
		c-0.5-0.2-0.9-0.3-1.3-0.2l-1.7,3.7C573.7,516.4,574,516.7,574.3,516.8z"/>
	<path class="st1" d="M584.2,514.7c2.3,1.2,2.3,3,1.2,5.1c-1.2,2.1-2.7,3.1-4.9,1.9c-2.2-1.2-2.3-3-1.2-5.1S581.9,513.5,584.2,514.7
		z M581.2,520.2c1.2,0.6,1.8-0.2,2.4-1.3s0.9-2.1-0.3-2.7c-1.2-0.6-1.8,0.2-2.4,1.3C580.4,518.6,580,519.5,581.2,520.2z"/>
	<path class="st1" d="M588.4,517.2l1.2,0.7l-0.3,0.8c0.9-0.3,1.7-0.2,2.4,0.3c0.2,0.1,0.5,0.4,0.7,0.5l-1,1.5
		c-0.3-0.2-0.5-0.4-0.7-0.5c-0.7-0.4-1.3-0.5-1.8-0.4l-2.8,4.6l-1.7-1L588.4,517.2z"/>
	<path class="st1" d="M592.8,521.9l-1-0.6l0.8-1.2l1.1,0.6l1.3-1.8l1.4,1l-1.2,1.8l1.6,1.1l-0.9,1.3l-1.6-1.1l-2.1,3.1
		c-0.3,0.5-0.2,0.7,0.1,0.9c0.3,0.2,0.7,0.4,1,0.4l-0.5,1.5c-0.5-0.1-1.2-0.3-1.7-0.7c-1.1-0.7-1.5-1.8-0.6-3.1L592.8,521.9z"/>
	<path class="st1" d="M598.1,523.5l1.6,1.1l-4.5,6.2l-1.6-1.1L598.1,523.5z M599.8,521.1l1.6,1.1l-1.1,1.5l-1.6-1.1L599.8,521.1z"/>
	<path class="st1" d="M601.2,525.8l1.1,0.9l-0.2,0.5c0.8,0.1,1.6,0.4,2.3,0.9c1.4,1.1,1.3,2.5,0.3,3.6l-3.2,4l-1.5-1.2l3.1-3.8
		c0.5-0.6,0.5-1.1-0.1-1.6c-0.4-0.3-0.9-0.5-1.3-0.6l-3.6,4.4l-1.5-1.2L601.2,525.8z"/>
	<path class="st1" d="M603.5,539.5c0.5,0.5,1.2,0.9,1.9,0.1l0.4-0.4c-0.4-0.2-0.9-0.4-1.4-0.8c-1.5-1.4-1.2-3.1,0.4-4.8
		c1.9-2.1,3.6-2.1,5.3-0.5c0.8,0.8,1.4,1.7,1.8,2.4l-4.9,5.4c-1.6,1.8-3.1,1.3-4.6-0.1c-0.6-0.5-1-1.1-1.5-1.6l1.3-1.1
		C602.4,538.4,603,539.1,603.5,539.5z M606.9,538l2.7-3c-0.2-0.3-0.4-0.6-0.7-0.8c-0.8-0.8-1.6-0.6-2.7,0.6c-1,1.1-1.2,1.8-0.4,2.5
		C606.1,537.7,606.5,537.9,606.9,538z"/>
	<path class="st1" d="M619.1,537.8l1.8,2.1l-3.4,5.7l0.1,0.1l6.1-2.6l1.8,2.1c-1.5,1.7-5,5-7.6,7.4l-1.4-1.6
		c1.9-1.7,3.8-3.5,5.6-5.3l0,0l-5.8,2.5l-1.4-1.6l3.2-5.4l0,0c-2,1.5-4,3.2-5.9,4.8l-1.3-1.5C613.4,542.1,617.2,539.1,619.1,537.8z"
		/>
	<path class="st1" d="M623.9,552.9c0.2,0.3,0.4,0.6,0.6,1l0.2-0.2c0.7-0.5,0.8-1,0.2-1.8c-0.4-0.5-1-1.1-1.5-1.5l1.1-1.2
		c0.5,0.5,1.2,1.1,1.8,1.9c1.2,1.6,1.2,3-0.3,4.1l-4.1,3l-0.8-1.1l0.3-0.5c-0.5-0.1-1.3-0.5-1.9-1.2c-0.8-1.1-0.9-2.6,0.4-3.5
		C621.3,550.8,622.7,551.2,623.9,552.9z M621.2,554.7c0.3,0.4,0.8,0.7,1.2,0.8l1.1-0.8c-0.2-0.3-0.4-0.7-0.6-0.9
		c-0.5-0.7-1-0.9-1.5-0.5C620.8,553.7,620.8,554.2,621.2,554.7z"/>
	<path class="st1" d="M628,556.3l-0.6-1l1.2-0.8l0.7,1l1.9-1.1l1,1.4l-1.8,1.2l1.1,1.6l-1.3,0.9l-1.1-1.6L626,560
		c-0.5,0.3-0.5,0.5-0.2,0.9c0.2,0.3,0.5,0.6,0.8,0.8l-1.1,1.2c-0.4-0.3-0.9-0.8-1.3-1.3c-0.7-1.1-0.7-2.2,0.7-3.1L628,556.3z"/>
	<path class="st1" d="M633.9,562.2c1,1.7,0.5,3.2-1.3,4.4c-0.3,0.2-0.8,0.4-1.2,0.6l-2.2-3.7c-0.9,0.7-1,1.3-0.5,2.2
		c0.4,0.6,1,1.2,1.4,1.6l-1.1,1.3c-0.7-0.5-1.4-1.2-1.9-2c-1.2-2-0.7-3.7,1.5-5.1C631,560.1,632.8,560.3,633.9,562.2z M631.8,564.8
		c0.8-0.5,1-1.1,0.6-1.8s-1.1-0.7-1.9-0.3L631.8,564.8z"/>
	<path class="st1" d="M636,566.2l0.7,1.2L636,568c0.9,0.2,1.5,0.7,1.9,1.4c0.1,0.2,0.3,0.6,0.3,0.8l-1.6,0.7
		c-0.1-0.3-0.2-0.6-0.3-0.8c-0.4-0.7-0.8-1.1-1.4-1.3l-4.7,2.5l-0.9-1.7L636,566.2z"/>
	<path class="st1" d="M638.6,571.2l0.9,1.7l-6.8,3.3l-0.9-1.7L638.6,571.2z M641.3,569.9l0.9,1.7l-1.7,0.8l-0.9-1.7L641.3,569.9z"/>
	<path class="st1" d="M638.7,578.3c0.2,0.4,0.3,0.7,0.4,1.1l0.2-0.1c0.8-0.3,1-0.8,0.6-1.7c-0.2-0.6-0.7-1.3-1.1-1.8l1.4-0.9
		c0.4,0.6,1,1.4,1.3,2.2c0.8,1.9,0.5,3.2-1.2,4l-4.7,2l-0.6-1.3l0.5-0.4c-0.5-0.3-1.1-0.8-1.5-1.6c-0.6-1.3-0.3-2.7,1.2-3.3
		C636.6,575.7,637.9,576.4,638.7,578.3z M635.7,579.4c0.2,0.5,0.6,0.9,0.9,1l1.3-0.5c-0.1-0.3-0.3-0.8-0.4-1
		c-0.3-0.8-0.8-1.1-1.4-0.8S635.4,578.9,635.7,579.4z"/>
	<path class="st1" d="M646.1,580.7l0.7,1.8l-9.9,3.8l-0.7-1.8L646.1,580.7z"/>
	<path class="st1" d="M639.1,586.9c0.1,0.6,0.3,1.5,0.5,2.1c0.3,0.8,0.6,1.2,1,1.1c0.4-0.1,0.3-0.8,0.3-1.9c0-1.3,0.3-2.3,1.5-2.7
		c1.4-0.5,2.6,0.3,3.3,2.3c0.2,0.7,0.4,1.5,0.5,2.1l-1.7,0.3c-0.1-0.6-0.2-1.3-0.4-1.9c-0.3-0.8-0.6-1.1-0.9-1
		c-0.5,0.2-0.3,0.9-0.3,1.9c0,1.4-0.3,2.3-1.5,2.7c-1.4,0.5-2.6-0.2-3.4-2.4c-0.2-0.7-0.5-1.6-0.5-2.3L639.1,586.9z"/>
</g>
<g>
	<path class="st1" d="M412.4,566.3c-2.9-1.8-4-3.9-2.2-6.9c0.5-0.8,1.1-1.5,1.6-2l1.4,1.2c-0.4,0.5-1,1.2-1.4,1.8
		c-1.1,1.9-0.3,3,1.8,4.3c1.7,1,3.2,1.5,4.4-0.4c0.4-0.7,0.7-1.5,0.9-2.4l1.8,0.4c-0.2,1.1-0.5,2-1.1,3
		C417.8,568,415.4,568.1,412.4,566.3z"/>
	<path class="st1" d="M416.8,554.9c1.5-2.1,3.3-2,5.2-0.6c2,1.4,2.7,3,1.2,5.1s-3.3,2-5.2,0.6S415.4,557,416.8,554.9z M421.9,558.4
		c0.8-1.1,0-1.8-1-2.5s-1.9-1.2-2.7-0.1c-0.8,1.1,0,1.8,1,2.5C420.3,559.1,421.2,559.5,421.9,558.4z"/>
	<path class="st1" d="M423.9,550.6c0.3-0.3,0.5-0.6,0.8-0.8l-0.2-0.2c-0.7-0.5-1.2-0.5-1.8,0.3c-0.4,0.5-0.8,1.3-1.1,1.8l-1.5-0.8
		c0.3-0.6,0.8-1.5,1.3-2.2c1.3-1.6,2.6-1.9,4.1-0.8l4,3.2l-0.9,1.1L428,552c0,0.5-0.1,1.4-0.7,2.1c-0.9,1.1-2.3,1.5-3.5,0.5
		C422.6,553.7,422.6,552.2,423.9,550.6z M426.3,552.8c0.3-0.4,0.5-1,0.5-1.3l-1.1-0.9c-0.2,0.2-0.6,0.6-0.7,0.8
		c-0.5,0.6-0.6,1.2-0.1,1.6C425.4,553.4,425.9,553.3,426.3,552.8z"/>
	<path class="st1" d="M426.8,542.4c0.4-0.5,0.9-0.9,1.4-1.3l1.1,1.3c-0.4,0.3-0.9,0.8-1.2,1.1c-0.9,1-0.8,1.7,0.5,2.9
		c1.1,1,1.9,1.3,2.7,0.4c0.4-0.5,0.8-1.2,1.1-1.8l1.5,0.7c-0.3,0.8-0.7,1.6-1.3,2.2c-1.6,1.8-3.3,1.7-5.3-0.1
		C425.3,546.1,425,544.5,426.8,542.4z"/>
	<path class="st1" d="M427.2,537.8l1.4-1.4l2.4,2.4c0.2-0.6,0.5-1.2,1-1.7c1.3-1.3,2.6-1,3.7,0.1l3.6,3.6l-1.4,1.4l-3.5-3.5
		c-0.5-0.5-1-0.6-1.6,0c-0.4,0.4-0.6,0.9-0.7,1.2l4,4l-1.4,1.4L427.2,537.8z"/>
	<path class="st1" d="M433.2,531.9l1.4-1.3l1.2,1.4l-1.4,1.3L433.2,531.9z M435.2,534.2l1.4-1.3l5.1,5.6l-1.4,1.3L435.2,534.2z"/>
	<path class="st1" d="M438.1,531.5l1.1-0.9l0.5,0.3c0.2-0.8,0.7-1.5,1.3-2c1.4-1.1,2.7-0.7,3.6,0.4l3.3,4l-1.5,1.2l-3.1-3.8
		c-0.5-0.6-1-0.7-1.6-0.2c-0.4,0.3-0.7,0.8-0.8,1.2l3.6,4.4l-1.5,1.2L438.1,531.5z"/>
	<path class="st1" d="M451.9,532.1c0.6-0.4,1.1-1,0.5-1.9l-0.3-0.4c-0.3,0.4-0.6,0.8-1.1,1.2c-1.7,1.2-3.2,0.6-4.7-1.4
		c-1.7-2.3-1.3-4,0.5-5.3c0.9-0.7,2-1.1,2.7-1.3l4.3,5.9c1.4,2,0.7,3.3-1,4.5c-0.7,0.5-1.3,0.8-1.9,1.1l-0.8-1.5
		C450.7,532.9,451.4,532.5,451.9,532.1z M451.2,528.5l-2.4-3.3c-0.3,0.1-0.6,0.3-0.9,0.5c-0.9,0.7-0.9,1.4,0.1,2.8
		c0.9,1.2,1.5,1.5,2.4,0.9C450.7,529.1,451,528.8,451.2,528.5z"/>
</g>
<g>
	<path class="st2" d="M453.7,688.8c6.5-1.7,13.1,2.3,14.8,8.9c0,0.1-0.1,0.3-0.2,0.4s-0.3-0.1-0.4-0.2c-1.6-6.3-7.9-10.1-14.1-8.5
		c-4.6,1.2-7.9,5-8.6,9.4l4.5-1.1c0.1,0,0.3,0.1,0.4,0.2s-0.1,0.3-0.2,0.4l-5.1,1.3c-0.1,0-0.3-0.1-0.4-0.2l-1.3-5.1
		c0-0.2,0.1-0.4,0.2-0.4c0.1,0,0.3,0.1,0.3,0.2l1.1,4.2C445.7,693.8,449,690,453.7,688.8z M444.8,705.3c0.1,0,0.3,0.1,0.3,0.2
		c1.3,6.3,7.5,10.4,13.7,9.1c4.7-1,8.1-4.6,9-9l-4.5,0.9c-0.2,0-0.3-0.1-0.4-0.2c0-0.2,0.1-0.3,0.2-0.3l5.2-1.1
		c0.2,0,0.3,0.1,0.3,0.2l1.1,5.2c0,0.2-0.1,0.3-0.2,0.4c-0.2,0-0.3-0.1-0.3-0.2l-0.9-4.2c-1.1,4.4-4.6,8-9.4,9
		c-6.6,1.4-13-2.9-14.4-9.6C444.5,705.5,444.7,705.3,444.8,705.3L444.8,705.3z"/>
	<rect x="436.6" y="701.8" class="st2" width="37.4" height="0.7"/>
	<polygon class="st2" points="472.5,704.6 472,704 474,702.1 472.3,699.7 472.9,699.3 474.9,702.2 	"/>
</g>
<g>
	<g>
		<path class="st0" d="M92.7,290.1h5.6c0,0,3.7,0,3.3-2.8c0-0.3,0-5.2,0-5.2h3.3c0,0-3.3-14.7-7.7-17.5s-9.3-3-13.6-0.5
			c0,0-1.2,0.7-1.8,1.5"/>
		<path class="st0" d="M80.8,283.4c0.2,0.3,1.8,4.7,1.8,6.2s0,6.9,0,6.9"/>
		<line class="st0" x1="94.9" y1="296.5" x2="94.9" y2="289.6"/>
	</g>
	<path class="st0" d="M80.4,280.4L80.4,280.4c-3.8-3.8-3.8-10,0-13.9l0.1-0.1"/>
	<path class="st0" d="M78.7,264.7C78.6,264.8,78.6,264.8,78.7,264.7c-4.9,4.9-4.9,12.7-0.1,17.5l0,0"/>
	<path class="st0" d="M82.1,278.6c-2.8-2.8-2.8-7.5,0-10.3l0.1-0.1"/>
	<path class="st0" d="M80.4,266.5L80.4,266.5c-3.9,3.9-3.9,10.1-0.1,13.9l0,0"/>
	<path class="st0" d="M83.9,276.9L83.9,276.9c-1.9-1.9-1.9-4.9,0-6.8L84,270"/>
	<path class="st0" d="M82.2,268.3C82.2,268.3,82.1,268.3,82.2,268.3c-2.9,2.9-2.9,7.5-0.1,10.4"/>
	<path class="st0" d="M85.6,275.1c-0.9-0.9-0.9-2.3,0-3.2l0.1-0.1"/>
	<path class="st0" d="M84,270C83.9,270.1,83.9,270.1,84,270c-2,1.9-2,5-0.1,6.9l0,0"/>
	<path class="st0" d="M85.7,271.8L85.7,271.8c-1,1-1,2.4-0.1,3.3"/>
</g>
<g>
	<g>
		<path class="st0" d="M449.7,263.9c-1.4,0-2.5,1.1-2.5,2.5s1.1,2.5,2.5,2.5s2.5-1.1,2.5-2.5S451,263.9,449.7,263.9z M449.7,267.9
			c-0.8,0-1.4-0.6-1.4-1.4s0.6-1.4,1.4-1.4c0.8,0,1.4,0.6,1.4,1.4S450.4,267.9,449.7,267.9z"/>
		<path class="st0" d="M455.4,266.4c0-0.7,0.6-1.4,1.3-1.4c-0.2-0.9-0.6-1.8-1.1-2.6c-0.6,0.5-1.4,0.4-1.9-0.1s-0.6-1.4-0.1-1.9
			c-0.8-0.5-1.6-0.9-2.6-1.1c-0.1,0.7-0.7,1.3-1.4,1.3s-1.4-0.6-1.4-1.3c-0.9,0.2-1.8,0.6-2.6,1.1c0.5,0.6,0.4,1.4-0.1,1.9
			s-1.4,0.6-1.9,0.1c-0.5,0.8-0.9,1.6-1.1,2.6c0.7,0.1,1.3,0.7,1.3,1.4c0,0.7-0.6,1.4-1.3,1.4c0.2,0.9,0.6,1.8,1.1,2.6
			c0.6-0.5,1.4-0.4,1.9,0.1s0.6,1.4,0.1,1.9c0.8,0.5,1.6,0.9,2.6,1.1c0.1-0.7,0.7-1.3,1.4-1.3s1.4,0.6,1.4,1.3
			c0.9-0.2,1.8-0.6,2.6-1.1c-0.5-0.6-0.4-1.4,0.1-1.9s1.4-0.6,1.9-0.1c0.5-0.8,0.9-1.6,1.1-2.6C456,267.8,455.4,267.2,455.4,266.4z
			 M449.7,270.4c-2.2,0-4-1.8-4-4s1.8-4,4-4s4,1.8,4,4S451.8,270.4,449.7,270.4z"/>
	</g>
	<path class="st0" d="M461.5,283h5.7c0,0,3.8,0,3.3-2.8c0-0.3,0-5.3,0-5.3h3.4c0,0-3.4-14.9-7.9-17.8s-9.5-3.1-13.8-0.5"/>
	<path class="st0" d="M449.3,276.2c0.2,0.3,1.9,4.8,1.9,6.3c0,1.4,0,7,0,7"/>
	<line class="st0" x1="463.7" y1="289.6" x2="463.7" y2="282.6"/>
</g>
<g>
	<path class="st0" d="M366.1,431.2c0,0-1.6,0-5.2,0s-5.5-3.2-5-5.7c0.3-1.3,1.9-3.3,4.4-4.5l0.6-0.3c4.4-1.7,8.3,0.3,8.3,0.3
		c6.5,1.8,8.3,11.4,8.3,11.4l2.1,8.3h-3v4.3c0,1.8-2,1.9-2.2,1.9s-5.9,0-5.9,0h-1.2"/>
	<path class="st0" d="M362.7,423.1c0,0,3.2,0.1,4.8,1.7s4.1,4.4,2.8,9.3c-1.3,5-6.5,5.3-9.6,5.3c-2.1,0-7.5,0-10.7,0"/>
	<polyline class="st0" points="364.3,429.3 366.1,431.2 364.3,433.1 	"/>
	<rect x="359.4" y="428.5" class="st0" width="1.1" height="1.1"/>
	<rect x="361.5" y="428.5" class="st0" width="1.1" height="1.1"/>
	<rect x="359.4" y="432.9" class="st0" width="1.1" height="1.1"/>
	<rect x="361.5" y="432.9" class="st0" width="1.1" height="1.1"/>
	<path class="st0" d="M356.9,441c0.2,0.3,1.8,4.7,1.8,6.1s0,6.8,0,6.8"/>
	<line class="st0" x1="371" y1="453.9" x2="371" y2="447.1"/>
</g>
<g>
	<path class="st0" d="M179,447h5.7c0,0,3.8,0,3.3-2.8c0-0.3,0-5.3,0-5.3h3.4c0,0-3.4-15-7.9-17.8c-4.5-2.9-9.5-3.1-13.8-0.5"/>
	<path class="st0" d="M166.8,440.2c0.2,0.3,1.9,4.8,1.9,6.3c0,1.4,0,7.1,0,7.1"/>
	<line class="st0" x1="181.2" y1="453.5" x2="181.2" y2="446.5"/>
	<circle class="st0" cx="166.1" cy="430.7" r="7.1"/>
	<circle class="st0" cx="166.1" cy="430.7" r="5.4"/>
	<line class="st0" x1="161.3" y1="436.2" x2="156.1" y2="443"/>
</g>
<g>
	<g>
		<rect x="181.8" y="108.7" class="st0" width="0.8" height="0.8"/>
	</g>
	<g>
		<rect x="183.4" y="108.7" class="st0" width="0.8" height="0.8"/>
	</g>
	<g>
		<rect x="181.8" y="110.3" class="st0" width="0.8" height="0.8"/>
	</g>
	<g>
		<rect x="183.4" y="110.3" class="st0" width="0.8" height="0.8"/>
	</g>
	<g>
		<rect x="185.1" y="110.3" class="st0" width="0.8" height="0.8"/>
	</g>
	<g>
		<rect x="181.8" y="112" class="st0" width="0.8" height="0.8"/>
	</g>
	<g>
		<rect x="183.4" y="112" class="st0" width="0.8" height="0.8"/>
	</g>
	<g>
		<rect x="181.8" y="107" class="st0" width="0.8" height="0.8"/>
	</g>
	<g>
		<rect x="181.8" y="113.6" class="st0" width="0.8" height="0.8"/>
	</g>
	<polygon class="st0" points="165.3,116.2 171,116.2 172.1,117.1 173.3,116.2 179,116.2 179,104.8 173.3,104.8 172.1,105.6 
		171,104.7 165.3,104.7 	"/>
	<path class="st0" d="M166.3,107.2c0.1,0,4.6,0,4.6,0"/>
	<path class="st0" d="M166.3,108.9c0.1,0,4.6,0,4.6,0"/>
	<path class="st0" d="M166.3,110.5c0.1,0,4.6,0,4.6,0"/>
	<path class="st0" d="M166.3,112.2c0.1,0,4.6,0,4.6,0"/>
	<path class="st0" d="M166.3,113.9c0.1,0,4.6,0,4.6,0"/>
	<path class="st0" d="M173.4,107.2c0.1,0,4.6,0,4.6,0"/>
	<path class="st0" d="M173.4,108.9c0.1,0,4.6,0,4.6,0"/>
	<path class="st0" d="M173.4,110.5c0.1,0,4.6,0,4.6,0"/>
	<path class="st0" d="M173.4,112.2c0.1,0,4.6,0,4.6,0"/>
	<path class="st0" d="M173.4,113.9c0.1,0,4.6,0,4.6,0"/>
	<line class="st0" x1="172.1" y1="105.6" x2="172.1" y2="117.1"/>
	<g>
		<path class="st0" d="M184.4,127h5.5c0,0,3.7,0,3.2-2.7c0-0.3,0-5.1,0-5.1h3.3c0,0-3.2-14.4-7.6-17.2c-4.4-2.8-9.1-3-13.3-0.5
			c0,0-1.2,0.7-1.7,1.4"/>
		<path class="st0" d="M172.6,120.5c0.2,0.3,1.8,4.7,1.8,6.1s0,6.8,0,6.8"/>
		<line class="st0" x1="186.5" y1="133.3" x2="186.5" y2="126.6"/>
	</g>
</g>
<g>
	<g>
		<path class="st0" d="M363.5,126.4h5.6c0,0,3.7,0,3.2-2.8c0-0.3,0-5.2,0-5.2h3.3c0,0-3.3-14.6-7.7-17.4c-4.4-2.8-9.3-3-13.5-0.5
			c0,0-1.2,0.7-1.8,1.4c0,0-1.7,1.5-2,2.8"/>
		<path class="st0" d="M353.4,132.8c0,0,0-5.5,0-6.9s-1.6-5.9-1.8-6.1c0,0-1.2-3-1.3-4.7"/>
		<line class="st0" x1="365.6" y1="132.8" x2="365.6" y2="126"/>
	</g>
	<g>
		<polygon class="st0" points="354.9,115.3 357.3,111.3 347.5,105.6 345,109.5 		"/>
		<polygon class="st0" points="359.6,115.3 357.3,111.3 354.8,115.3 		"/>
		<line class="st0" x1="358.9" y1="114" x2="358.1" y2="115.3"/>
		<path class="st0" d="M346.7,106.9c0.3,0.3,9.8,5.7,9.8,5.7"/>
		<path class="st0" d="M345.9,108.2c0.3,0.3,9.8,5.7,9.8,5.7"/>
		
			<rect x="343.1" y="106.4" transform="matrix(0.527 -0.8499 0.8499 0.527 72.3159 344.3415)" class="st0" width="4.7" height="1.6"/>
		<path class="st0" d="M346,105c-0.9-0.6-2.2-0.3-2.7,0.6c-0.6,0.9-0.3,2.2,0.6,2.7"/>
	</g>
</g>
<g>
	<path class="st1" d="M42.1,317.7l2,3.2l-1.3,0.8l-2.7-4l-0.3-1.6l16.2-2.9l0.3,1.9L42.1,317.7z"/>
	<path class="st1" d="M38,304l-0.3-3.2l13.6-1.3l-0.6-6.7l2.8-0.3l1,9.9L38,304z"/>
	<path class="st1" d="M37,291.6l-0.2-3l2.9-0.2l0.2,3L37,291.6z M41.6,291.3l-0.2-3l11.8-0.7l0.2,3L41.6,291.3z"/>
	<path class="st1" d="M50.3,285.1c0.2-1,0.3-2.3,0.3-3.4c0-1.3-0.3-2.1-1-2.1s-0.9,1-1.4,2.7c-0.7,2-1.5,3.3-3.5,3.3
		c-2.4,0-3.7-1.7-3.8-4.9c0-1.1,0.1-2.3,0.3-3.4l2.6,0.3c-0.1,0.9-0.3,2.1-0.3,3c0,1.3,0.3,1.9,0.9,1.9c0.8,0,0.8-1.2,1.4-2.7
		c0.7-2.1,1.6-3.3,3.5-3.3c2.3,0,3.8,1.5,3.9,5.2c0,1.2-0.1,2.6-0.3,3.7L50.3,285.1z"/>
	<path class="st1" d="M43.7,273.8v1.8l-2.2-0.1l-0.1-1.9l-3.4-0.3l0.1-2.7l3.3,0.1l0.1-2.9l2.5,0.1l-0.1,2.9l5.8,0.1
		c0.8,0,1.1-0.3,1.1-0.9c0-0.5-0.1-1.2-0.3-1.7l2.4-0.6c0.3,0.8,0.5,1.8,0.5,2.9c-0.1,2-1.2,3.4-3.6,3.4L43.7,273.8z"/>
	<path class="st1" d="M41.5,260.6c0.2-3,2.2-4.6,5.6-4.4c0.6,0,1.4,0.2,2,0.3l-0.5,6.6c1.7-0.1,2.5-0.8,2.6-2.4
		c0.1-1.1-0.2-2.4-0.4-3.3l2.5-0.7c0.4,1.3,0.7,2.7,0.6,4.2c-0.3,3.6-2.4,5.4-6.5,5.1C43.4,265.9,41.3,263.9,41.5,260.6z
		 M46.5,259.2c-1.5-0.1-2.3,0.5-2.4,1.7c-0.1,1.3,0.7,1.9,2.1,2.1L46.5,259.2z"/>
	<path class="st1" d="M42.4,253l0.3-2.1l0.9-0.1c-0.6-1.1-0.8-2.4-0.7-3.7c0.4-2.8,2.3-3.7,4.6-3.4l7.9,1l-0.4,3l-7.5-1
		c-1.1-0.1-1.9,0.2-2,1.5c-0.1,0.8,0.1,1.6,0.3,2.2l8.8,1.1l-0.4,3L42.4,253z"/>
	<path class="st1" d="M113.2,125c0.4-6,0.6-10.9-1.7-13.3c-1.3-1.4-3-1.3-4.5,0.2c-1,1-1.8,2.5-2.3,3.6l-1.5-0.7
		c0.5-1.3,1.4-3,2.6-4.2c2.1-2.1,4.8-2.5,7-0.3c2.6,2.6,2.5,7.2,2.1,12.4h0.1l5.4-5.3l1.2,1.2l-7.5,7.3L113.2,125z"/>
	<path class="st1" d="M117.8,100.3c0.9-1,2.5-2.6,3.8-3.7c2.8-2.3,5.7-3.1,8.2-0.1c1.7,2.1,1.6,4,0.7,5.6c2,0.9,4.7,2,7.2,2.9v0.1
		l-2.9,2.4c-2.2-0.9-4.6-1.9-6.5-2.8c-0.6,0.5-1.2,0.9-1.6,1.2l4.1,5l-2.5,2L117.8,100.3z M126.5,102.8c1.6-1.3,2.1-2.4,0.8-4
		c-1.3-1.5-2.5-1.2-4,0c-0.5,0.4-1.1,0.9-1.5,1.3l3.1,3.8C125.5,103.6,126.2,103.1,126.5,102.8z"/>
	<path class="st1" d="M135.6,91.6c2.5-1.8,4.9-1.3,6.9,1.4c0.3,0.5,0.8,1.2,1,1.7l-5.4,3.9c1.1,1.2,2.2,1.4,3.5,0.4
		c0.9-0.6,1.7-1.7,2.2-2.4l2.1,1.5c-0.7,1.1-1.6,2.3-2.9,3.2c-2.9,2.1-5.7,1.6-8.1-1.7C132.8,96.5,132.9,93.6,135.6,91.6z
		 M139.9,94.6c-0.9-1.2-1.8-1.5-2.8-0.7c-1.1,0.8-1,1.8-0.3,3L139.9,94.6z"/>
	<path class="st1" d="M146.5,95.3c0.9-0.4,2.1-1,3-1.5c1.1-0.7,1.6-1.4,1.2-1.9c-0.4-0.6-1.3-0.2-3,0.2c-2,0.5-3.6,0.4-4.6-1.2
		c-1.3-2-0.5-4.1,2.1-5.8c0.9-0.6,2-1.1,3-1.5l1.1,2.4c-0.8,0.4-1.9,0.9-2.7,1.4c-1.1,0.7-1.4,1.3-1.1,1.8c0.4,0.6,1.4,0.1,3-0.3
		c2.2-0.5,3.6-0.4,4.7,1.2c1.3,1.9,0.7,4-2.3,6c-1,0.7-2.3,1.3-3.3,1.7L146.5,95.3z"/>
	<path class="st1" d="M154.6,79.3c2.6-1.5,5.1-0.8,6.8,2.1c0.3,0.5,0.7,1.3,0.9,1.8l-5.7,3.3c1,1.3,2.1,1.6,3.4,0.8
		c0.9-0.6,1.9-1.5,2.5-2.2l2,1.7c-0.8,1.1-1.9,2.1-3.2,2.9c-3.1,1.8-5.8,1.1-7.9-2.5C151.2,83.8,151.7,80.9,154.6,79.3z M158.6,82.6
		c-0.8-1.3-1.7-1.6-2.7-1c-1.1,0.7-1.1,1.7-0.6,2.9L158.6,82.6z"/>
	<path class="st1" d="M167.1,77.9c0.6-0.3,1-0.5,1.6-0.7l-0.2-0.4c-0.6-1.2-1.3-1.4-2.8-0.7c-0.8,0.4-2,1.2-2.7,1.9l-1.6-2.1
		c0.9-0.7,2-1.6,3.3-2.3c2.8-1.4,5-1,6.3,1.5l3.6,7l-1.9,1l-0.7-0.7c-0.3,0.8-1.1,1.8-2.4,2.5c-2,1-4.2,0.7-5.3-1.5
		C163.3,81.4,164.3,79.3,167.1,77.9z M169.2,82.5c0.7-0.4,1.3-1.1,1.5-1.6l-1-1.9c-0.5,0.2-1.2,0.5-1.5,0.7
		c-1.1,0.6-1.6,1.4-1.1,2.2C167.5,82.8,168.3,83,169.2,82.5z"/>
	<path class="st1" d="M172.4,70.1l2-0.9l0.9,1.1c0.4-1.4,1.2-2.3,2.4-2.8c0.4-0.2,0.9-0.4,1.3-0.5l1,2.6c-0.5,0.1-0.9,0.3-1.2,0.4
		c-1.2,0.5-1.7,1.2-2.1,2l3.5,7.6l-2.7,1.3L172.4,70.1z"/>
	<path class="st1" d="M185.3,64.3c0.9-0.4,1.8-0.6,2.9-0.8l0.7,2.5c-0.8,0.2-1.8,0.4-2.5,0.7c-2,0.8-2.3,1.9-1.3,4.3
		c0.9,2.2,1.8,3,3.5,2.3c0.9-0.4,2-1.2,2.7-1.7l1.6,2c-0.9,0.9-2.1,1.7-3.4,2.2c-3.4,1.4-5.7,0.1-7.3-3.7
		C180.7,68.5,181.3,65.9,185.3,64.3z"/>
	<path class="st1" d="M189.3,58l2.9-1l1.7,4.9c0.7-0.7,1.5-1.3,2.6-1.7c2.6-0.9,4.3,0.4,5.1,2.6l2.6,7.5l-2.9,1l-2.5-7.2
		c-0.4-1.1-1-1.6-2.2-1.2c-0.8,0.3-1.4,0.8-1.9,1.2l2.9,8.4l-2.9,1L189.3,58z"/>
	<path class="st1" d="M343.1,70.8c1,0.6,2.4,1.4,3.7,1.9c2.1,0.8,3.9,0.8,4.8-1.7c0.9-2.3-0.3-3.4-2.4-4.2l-1.6-0.6l0.6-1.5l1.6,0.6
		c1.9,0.7,3.4,0.7,4.2-1.4c0.7-1.9,0-3.1-1.9-3.8c-1.3-0.5-2.9-0.7-4.1-0.6v-1.6c1.5,0,3.2,0.1,4.8,0.7c2.7,1,4.2,3.1,3.1,5.9
		c-0.7,1.9-2,2.6-3.5,2.6v0.1c1.4,1,1.9,2.6,1.1,4.7c-1.2,3.2-3.8,3.7-7.2,2.4c-1.4-0.5-2.8-1.3-3.9-2.1L343.1,70.8z"/>
	<path class="st1" d="M367.4,65.1c1.6,0.5,3.4,1.2,4.7,1.8c5.1,2.5,5.9,6.1,3.4,11.1c-2.5,5.1-5.9,6.6-11.1,4
		c-1-0.5-2.8-1.5-4.2-2.4L367.4,65.1z M365.6,79.5c3.4,1.7,5.1,0.6,6.9-2.9c1.7-3.5,1.5-5.6-1.8-7.2c-0.4-0.2-1-0.5-1.6-0.7l-4.9,10
		C364.7,79,365.2,79.3,365.6,79.5z"/>
	<path class="st1" d="M383.6,78.3c2.6,1.5,3.2,4,1.5,6.9c-0.3,0.5-0.8,1.2-1.2,1.7l-5.8-3.3c-0.7,1.5-0.3,2.6,1,3.4
		c1,0.5,2.2,0.9,3.2,1l-0.5,2.6c-1.3-0.2-2.7-0.6-4.1-1.3c-3.1-1.8-3.8-4.5-1.8-8.1C378.1,77.7,380.7,76.6,383.6,78.3z M382.7,83.4
		c0.7-1.3,0.6-2.3-0.5-2.9c-1.1-0.6-2-0.2-2.8,1L382.7,83.4z"/>
	<path class="st1" d="M384.8,89.7c0.7,0.7,1.7,1.5,2.7,2.1c1.1,0.7,1.9,0.9,2.3,0.3c0.4-0.6-0.4-1.3-1.5-2.7
		c-1.3-1.6-1.9-3.1-0.8-4.7c1.3-2,3.5-2.2,6.2-0.4c0.9,0.6,1.9,1.4,2.6,2.1l-1.7,2c-0.7-0.6-1.6-1.4-2.4-1.9
		c-1.1-0.7-1.8-0.8-2.1-0.3c-0.4,0.6,0.5,1.4,1.5,2.6c1.3,1.8,1.9,3.1,0.8,4.8c-1.3,2-3.4,2.3-6.4,0.3c-1-0.6-2.1-1.5-2.9-2.3
		L384.8,89.7z"/>
	<path class="st1" d="M398.9,88.1l2.5,1.7l-6.7,9.7l-2.5-1.7L398.9,88.1z M401.5,84.3L404,86l-1.6,2.4l-2.5-1.7L401.5,84.3z"/>
	<path class="st1" d="M398.9,105.5c0.9,0.7,2,1.2,3-0.1l0.5-0.7c-0.7-0.2-1.5-0.5-2.2-1.1c-2.5-1.9-2.4-4.6-0.1-7.5
		c2.6-3.5,5.3-3.7,8.1-1.6c1.4,1.1,2.5,2.4,3.1,3.4l-6.9,9.1c-2.3,3-4.6,2.5-7.2,0.5c-1-0.8-1.7-1.5-2.5-2.3l1.8-1.9
		C397.2,103.9,398.1,104.9,398.9,105.5z M404,102.7l3.8-5c-0.3-0.4-0.7-0.8-1.1-1.1c-1.4-1.1-2.5-0.7-4.1,1.4c-1.4,1.9-1.6,3-0.3,4
		C402.8,102.3,403.4,102.6,404,102.7z"/>
	<path class="st1" d="M414.5,99.8l1.6,1.4l-0.4,0.8c1.2,0.1,2.5,0.6,3.5,1.5c2.1,1.8,1.8,3.9,0.3,5.7l-5.2,6.1l-2.3-2l4.9-5.8
		c0.7-0.9,0.8-1.7-0.1-2.5c-0.6-0.5-1.4-0.8-2-1l-5.7,6.7l-2.3-2L414.5,99.8z"/>
</g>
<g>
	<path class="st1" d="M85.7,409c4.3-3.2,8-4.4,11-0.3c0.8,1.1,1.4,2.4,1.8,3.4l-1.5,0.7c-0.4-0.9-1-2.1-1.7-3.1
		c-2-2.7-4.2-2.2-7.4,0c0.8,0.5,2.2,1.6,3.1,2.9c1.7,2.2,2.1,4.9-0.8,7c-2.6,2-5.4,1.6-7.5-1.3C80.1,414.8,81.6,412.1,85.7,409z
		 M89,418.2c1.8-1.3,2.1-2.9,0.6-4.9c-0.7-1-1.9-2-2.8-2.7c-3.4,2.5-4.5,4.3-2.7,6.8C85.4,419.2,87,419.7,89,418.2z"/>
	<path class="st1" d="M107.6,422.4l2.8,3.2c-2.5,4.6-5.7,10-8.9,14.8l-2.2-2.5l2-3l-4-4.4l-3.2,1.7l-2.2-2.4
		C97,427.1,102.7,424.4,107.6,422.4z M102.9,432.5c1.4-2.2,2.8-4.5,3.9-6.5l-0.1-0.1c-2.1,0.9-4.5,2-6.9,3.2L102.9,432.5z"/>
	<path class="st1" d="M111.7,433.8l1.5,1.5l-0.4,0.8c1.2,0.2,2.4,0.8,3.3,1.7c2,2,1.6,4,0,5.7l-5.6,5.7l-2.2-2.1l5.3-5.4
		c0.8-0.8,0.9-1.6,0-2.5c-0.6-0.6-1.3-0.9-1.9-1.1l-6.2,6.3l-2.2-2.1L111.7,433.8z"/>
	<path class="st1" d="M121.2,449c0.5,0.4,0.8,0.8,1.2,1.3l0.3-0.3c0.9-1,0.8-1.8-0.3-2.8c-0.7-0.6-1.9-1.4-2.7-1.8l1.3-2.2
		c1,0.6,2.2,1.3,3.3,2.2c2.4,2.1,2.8,4.2,0.9,6.4l-5.2,5.9l-1.6-1.4l0.4-0.9c-0.9,0-2.1-0.3-3.2-1.3c-1.7-1.4-2.2-3.6-0.6-5.5
		C116.5,446.7,118.7,446.9,121.2,449z M117.6,452.6c0.6,0.5,1.4,0.8,2,0.8l1.4-1.6c-0.4-0.4-0.9-0.9-1.2-1.2c-1-0.8-1.8-1-2.5-0.2
		C116.7,451.2,116.9,452,117.6,452.6z"/>
	<path class="st1" d="M133.1,447l2.4,1.9l-10.4,12.8l-2.3-1.9L133.1,447z"/>
	<path class="st1" d="M134.2,453.9l2.4,1.8c-1.3,2.8-2.6,6.1-3.5,8.7l0.1,0.1c2.5-1.8,5.1-3.7,7.6-5.7l2.4,1.8
		c-4.6,3.7-9.9,7.5-14.1,10.1l-2.4-1.8c1.3-0.8,2.7-1.7,4.2-2.7l-1-0.7C130.5,462.7,132.5,457.5,134.2,453.9z"/>
	<path class="st1" d="M139.5,469c0.7,0.7,1.7,1.6,2.6,2.2c1.1,0.7,1.9,1,2.3,0.4c0.4-0.6-0.3-1.3-1.4-2.7c-1.3-1.7-1.8-3.1-0.7-4.7
		c1.3-2,3.5-2.1,6.2-0.3c0.9,0.6,1.9,1.4,2.6,2.2l-1.7,2c-0.7-0.6-1.6-1.4-2.3-1.9c-1.1-0.7-1.7-0.8-2.1-0.3
		c-0.4,0.6,0.5,1.4,1.4,2.7c1.3,1.8,1.8,3.2,0.7,4.8c-1.3,1.9-3.4,2.2-6.5,0.2c-1-0.7-2.1-1.6-2.9-2.4L139.5,469z"/>
	<path class="st1" d="M157.3,469.4c2.6,1.6,3.1,4,1.4,6.9c-0.3,0.5-0.8,1.2-1.2,1.6l-5.7-3.4c-0.7,1.5-0.4,2.6,1,3.4
		c0.9,0.6,2.2,0.9,3.1,1.1l-0.5,2.5c-1.3-0.2-2.7-0.6-4-1.4c-3.1-1.9-3.7-4.6-1.6-8.1C151.8,468.7,154.5,467.7,157.3,469.4z
		 M156.3,474.5c0.7-1.3,0.6-2.2-0.4-2.9c-1.1-0.7-2-0.2-2.8,0.9L156.3,474.5z"/>
	<path class="st1" d="M169.9,480.5L169.9,480.5c-1-1.2-1.3-2.6-0.5-4.3c1.4-2.9,4.3-3.1,7.6-1.5c1.3,0.6,2.6,1.5,3.6,2.3l-1.6,2.3
		c-0.9-0.7-2.2-1.5-3.3-2c-1.6-0.8-2.8-0.8-3.5,0.6c-0.7,1.4,0.1,2.3,1.6,3.1l6.8,3.3l-1.2,2.4l-2.1-1c-0.1,0.7-0.3,1.6-0.7,2.4
		c-1.4,3-4.2,3.5-7.5,1.8c-3.5-1.7-4.7-4.2-3.3-6.9C166.8,480.9,168.3,480.3,169.9,480.5z M170.4,487.2c1.8,0.9,2.9,0.6,3.7-0.9
		c0.3-0.6,0.5-1.4,0.6-2.1l-2-1c-1.9-0.9-3-0.8-3.7,0.8C168.2,485.5,168.6,486.4,170.4,487.2z"/>
	<path class="st1" d="M191.3,481.6c1.3,0.2,3.5,0.8,5.1,1.4c3.5,1.3,5.6,3.3,4.2,7c-0.9,2.5-2.6,3.4-4.5,3.4
		c0.2,2.2,0.7,5.1,1.2,7.7l0,0l-3.6-1.3c-0.4-2.3-0.7-4.9-0.9-7.1c-0.7-0.3-1.4-0.6-1.9-0.8l-2.2,6.1l-3-1.1L191.3,481.6z
		 M193.6,490.3c1.9,0.7,3.2,0.6,3.9-1.3c0.7-1.9-0.2-2.8-2.1-3.5c-0.6-0.2-1.3-0.4-1.9-0.6l-1.7,4.6
		C192.4,489.9,193.2,490.2,193.6,490.3z"/>
	<path class="st1" d="M207.6,491.6c2.9,0.9,4,3.2,3,6.4c-0.2,0.6-0.5,1.4-0.8,1.9l-6.3-1.9c-0.3,1.6,0.3,2.6,1.8,3
		c1.1,0.3,2.4,0.3,3.3,0.3l0.1,2.6c-1.3,0.1-2.8,0.1-4.3-0.4c-3.5-1-4.7-3.5-3.6-7.5C202.1,492.2,204.5,490.6,207.6,491.6z
		 M207.9,496.8c0.4-1.4,0.1-2.3-1.1-2.7c-1.2-0.4-2,0.3-2.5,1.6L207.9,496.8z"/>
	<path class="st1" d="M213.5,510.6l-2.9-0.7l3.9-16l2.1,0.5l0.1,0.9c0.8-0.3,1.9-0.6,3.4-0.3c2.8,0.7,3.9,3,2.9,7
		c-1,4.1-3.2,5.6-6.4,4.9c-0.7-0.2-1.4-0.5-2-0.7L213.5,510.6z M216.7,504.2c1.8,0.4,2.6-0.4,3.2-2.9c0.6-2.5,0.3-3.6-1.2-4
		c-0.8-0.2-1.5-0.1-2.1,0l-1.5,6.2C215.7,503.8,216.2,504.1,216.7,504.2z"/>
	<path class="st1" d="M231.3,497.3c3.9,0.7,4.9,3.3,4.2,7s-2.5,5.8-6.4,5.1s-4.9-3.3-4.2-7C225.5,498.7,227.4,496.6,231.3,497.3z
		 M229.5,506.8c2,0.4,2.6-1.1,2.9-3c0.4-1.9,0.4-3.5-1.7-3.9c-2-0.4-2.6,1.1-2.9,3C227.5,504.9,227.5,506.4,229.5,506.8z"/>
	<path class="st1" d="M238.9,498.8l2.1,0.3l0.2,1.4c1.1-0.9,2.3-1.3,3.6-1.1c0.4,0.1,1,0.2,1.4,0.3l-0.6,2.7
		c-0.5-0.1-0.9-0.2-1.3-0.3c-1.3-0.2-2.1,0.1-2.8,0.6l-1.1,8.2l-3-0.4L238.9,498.8z"/>
	<path class="st1" d="M248.4,502.6l-1.8-0.2l0.2-2.2l1.9,0.1l0.5-3.4l2.7,0.2l-0.3,3.3l2.9,0.3l-0.2,2.5l-2.9-0.3l-0.5,5.8
		c-0.1,0.8,0.2,1.1,0.8,1.2c0.5,0,1.2,0,1.7-0.2l0.4,2.5c-0.8,0.2-1.8,0.4-2.9,0.3c-2-0.2-3.3-1.4-3.1-3.9L248.4,502.6z"/>
	<path class="st1" d="M361.4,493.6c1.1-0.2,2.7-0.7,4.1-1.3c2.2-1,3.5-2.2,2.3-4.8c-1-2.3-2.5-2.5-5.3-1.3l-3.5,1.5l-3.1-7.7l8-3.5
		l0.7,1.5l-6.3,2.8l1.8,4.6l1.8-0.8c4-1.8,6.3-1,7.6,2c1.5,3.5,0,5.7-3.4,7.2c-1.4,0.6-3,1.1-4.3,1.3L361.4,493.6z"/>
	<path class="st1" d="M373.1,472.1l8.8-4.8l1.3,2.5l-6,3.3l1.8,3.4l5.1-2.8l1.3,2.4l-5.1,2.8l2,3.7l6-3.3l1.3,2.5l-8.8,4.8
		L373.1,472.1z"/>
	<path class="st1" d="M386.4,470.1l1.8-1.2l0.7,0.6c0.3-0.8,0.9-1.9,2.2-2.7c1.1-0.7,2.2-0.9,3.2-0.5c0.5-1.2,1.1-2.2,2.4-3
		c2.2-1.4,4.2-0.6,5.5,1.4l4.3,6.6l-2.5,1.6l-4.1-6.3c-0.6-1-1.5-1.3-2.4-0.7c-0.5,0.3-1,0.9-1.4,1.6c0.2,0.2,0.4,0.5,0.6,0.8
		l4.3,6.6l-2.5,1.6l-4.1-6.3c-0.6-1-1.5-1.3-2.4-0.7c-0.6,0.4-1,1-1.3,1.5l4.8,7.5l-2.5,1.6L386.4,470.1z"/>
	<path class="st1" d="M399.6,455.9l2.4-1.8l3,4c0.4-0.7,1-1.4,1.7-2c2.5-1.8,5-0.9,7.4,2.3c2.6,3.5,2.3,5.9-0.7,8.1
		c-1.4,1.1-3,1.7-4.3,2.1L399.6,455.9z M411.9,464.3c1.4-1,1.3-2.1-0.3-4.2c-1.5-2-2.5-2.5-3.9-1.5c-0.5,0.4-0.9,0.9-1.3,1.4
		l3.9,5.2C410.8,465,411.4,464.7,411.9,464.3z"/>
	<path class="st1" d="M415.5,449c2.3-2,4.8-1.6,7,1c0.4,0.5,0.9,1.1,1.2,1.7l-5.1,4.2c1.2,1.2,2.3,1.2,3.5,0.2
		c0.8-0.7,1.6-1.8,2.1-2.6l2.2,1.3c-0.6,1.2-1.5,2.4-2.7,3.4c-2.8,2.3-5.5,2-8.2-1.1C413,454,413,451.1,415.5,449z M420,451.7
		c-1-1.1-1.9-1.3-2.9-0.5s-0.9,1.8-0.1,3L420,451.7z"/>
	<path class="st1" d="M424.7,449.5c-2.8-3.1-2.9-5.8-0.5-8.1c0.5-0.5,1.1-0.9,1.6-1.2l-3.1-3.4l2.2-2.1l11.2,12.1l-1.6,1.5l-0.8-0.4
		c-0.1,1-0.5,1.9-1.5,2.8C430.1,452.7,427.5,452.5,424.7,449.5z M431.9,446.8l-4.4-4.7c-0.4,0.3-0.9,0.6-1.3,1
		c-1.3,1.2-1.1,2.4,0.7,4.3c1.7,1.9,2.8,2.2,3.9,1.2C431.4,448,431.8,447.3,431.9,446.8z"/>
	<g>
		<path class="st1" d="M485.4,346.5c-2.7-2.6-5.9-6-9.1-9.4l0.5-1.9c3.1,3.4,6.2,6.7,8.8,9.2l1.6-5.6l-3.4-1.2l0.5-1.6l3.5,1l0.9-3
			l1.6,0.5l-0.9,3l3.6,1l-0.5,1.8l-3.6-1l-2.2,7.6L485.4,346.5z"/>
		<path class="st1" d="M479.8,322.8l0.6-3.2l16.1,3.3l-0.6,3.2L479.8,322.8z"/>
		<path class="st1" d="M485.8,317.6l0.3-2.1l0.9-0.1c-0.4-0.8-0.8-1.9-0.6-3.4c0.2-1.3,0.8-2.2,1.7-2.7c-0.6-1.1-0.9-2.3-0.7-3.8
			c0.4-2.6,2.3-3.6,4.7-3.2l7.8,1.1l-0.4,3l-7.4-1.1c-1.2-0.2-1.9,0.2-2.1,1.3c-0.1,0.6,0,1.3,0.3,2.1c0.3,0,0.6,0,0.9,0.1l7.8,1.1
			l-0.4,3l-7.4-1.1c-1.2-0.2-1.9,0.2-2.1,1.3c-0.1,0.7,0,1.4,0.3,2l8.8,1.3l-0.4,3L485.8,317.6z"/>
		<path class="st1" d="M505,296.8l-0.2,3l-16.4-1.2l0.2-2.1l0.8-0.2c-0.5-0.8-0.9-1.8-0.8-3.3c0.2-2.9,2.3-4.3,6.4-4
			c4.2,0.3,6.1,2.2,5.9,5.5c-0.1,0.7-0.2,1.5-0.4,2L505,296.8z M498.1,294.6c0.1-1.9-0.8-2.5-3.3-2.7c-2.6-0.2-3.6,0.3-3.7,1.8
			c-0.1,0.8,0.1,1.5,0.4,2l6.4,0.5C498,295.7,498.1,295.1,498.1,294.6z"/>
		<path class="st1" d="M484.4,285.9l0.1-3l16.5,0.5l-0.1,3L484.4,285.9z"/>
		<path class="st1" d="M489,275.5c0-3,1.8-4.8,5.2-4.8c0.6,0,1.4,0,2,0.2v6.6c1.7-0.2,2.4-1,2.4-2.6c0-1.1-0.4-2.4-0.7-3.2l2.5-0.9
			c0.5,1.2,0.9,2.7,0.9,4.2c0,3.6-2,5.6-6.1,5.6C491.3,280.6,489,278.8,489,275.5z M493.9,273.7c-1.5,0.1-2.2,0.6-2.2,1.9
			s0.9,1.8,2.3,2L493.9,273.7z"/>
		<path class="st1" d="M489.2,268.4l-0.2-2.1l0.8-0.3c-0.5-0.7-1.2-1.7-1.3-3.2c-0.1-1.3,0.3-2.3,1-3c-0.8-1-1.4-2-1.5-3.5
			c-0.2-2.6,1.5-4,3.9-4.2l7.9-0.6l0.2,3l-7.5,0.6c-1.2,0.1-1.9,0.6-1.8,1.8c0,0.6,0.3,1.3,0.7,1.9c0.3-0.1,0.6-0.1,0.9-0.1l7.9-0.6
			l0.2,3l-7.5,0.6c-1.2,0.1-1.9,0.6-1.8,1.8c0,0.7,0.4,1.4,0.7,1.9l8.9-0.7l0.2,3L489.2,268.4z"/>
		<path class="st1" d="M486.7,245c-0.4-3,1.2-5,4.5-5.5c0.6-0.1,1.4-0.1,2-0.1l0.9,6.6c1.6-0.4,2.2-1.3,2-2.9
			c-0.2-1.1-0.7-2.3-1.1-3.1l2.3-1.2c0.7,1.1,1.2,2.5,1.5,4c0.5,3.6-1.2,5.8-5.3,6.4C489.6,249.8,487.2,248.3,486.7,245z
			 M491.3,242.6c-1.5,0.3-2.1,0.9-2,2.1c0.2,1.3,1.1,1.7,2.5,1.6L491.3,242.6z"/>
		<path class="st1" d="M485.9,237.9l-0.4-2.1l0.8-0.4c-0.9-0.9-1.5-2-1.8-3.3c-0.5-2.7,1-4.2,3.2-4.7l7.8-1.6l0.6,3l-7.5,1.5
			c-1.1,0.2-1.7,0.8-1.4,2c0.2,0.8,0.6,1.5,1,2l8.7-1.7l0.6,3L485.9,237.9z"/>
		<path class="st1" d="M485.6,224.2l0.4,1.7l-2.2,0.5l-0.6-1.8l-3.4,0.6l-0.7-2.6l3.2-0.8l-0.7-2.9l2.4-0.6l0.7,2.9l5.6-1.4
			c0.8-0.2,1-0.5,0.8-1.2c-0.1-0.5-0.4-1.1-0.7-1.6l2.2-1.2c0.5,0.7,1,1.6,1.2,2.6c0.5,2-0.2,3.6-2.6,4.2L485.6,224.2z"/>
	</g>
</g>
<g>
	<path class="st0" d="M777.5,367.7c0.5,1.5,1.5,4.2,1.5,5.3c0,1.5,0,7.3,0,7.3"/>
	<path class="st0" d="M792.6,346.4c-4.2-2.1-8.6-1.9-12.6,0.5c0,0-6.3,3.9-5.3,12.3"/>
	<path class="st0" d="M788.7,374h6.5c0,0,3.8,0.1,3.4-2.8c0-0.3,0-5.3,0-5.3h3.5c0,0-2.7-11.9-6.4-16.7"/>
	<line class="st0" x1="791.2" y1="380.3" x2="791.2" y2="373.6"/>
	<path class="st0" d="M775,365.2c2.4-3.9,4.5-7.3,4.6-7.1c0.2,0.5,4.6,5.2,4.6,5.2l12-19.3"/>
	<polyline class="st0" points="792.9,344.7 796.3,343.7 797.3,347.2 	"/>
	<circle class="st0" cx="770.3" cy="371.2" r="4.6"/>
	<g>
		<path class="st3" d="M768.9,372.6c0-1.8,1.7-1.4,1.7-2.5c0-0.4-0.2-0.5-0.6-0.5c-0.2,0-0.7,0-0.7,0.4l-0.5-0.2
			c0.1-0.4,0.5-0.6,1.1-0.6c0.8,0,1.1,0.4,1.1,1c0,1.2-1.6,1.2-1.6,2.1h1.6v0.4L768.9,372.6L768.9,372.6z"/>
	</g>
</g>
<g>
	<polyline class="st0" points="637.5,196.1 633,196.1 628.3,186.9 628.3,185.3 643.8,185.3 644.2,185.3 660.1,185.3 660.1,186.9 
		655.4,196.1 650.9,196.1 	"/>
	<path class="st0" d="M638.8,206.1c0,0-1.4-12-2.4-16.5h6.7h2.1h6.7c-1,4.5-2.4,16.5-2.4,16.5"/>
	<rect x="635.8" y="206.1" class="st0" width="16.6" height="2.7"/>
	<rect x="633.9" y="208.8" class="st0" width="20.4" height="2.7"/>
	<circle class="st0" cx="644.1" cy="196.2" r="2.8"/>
	<path class="st0" d="M644.4,182.8H644c-0.6,0-1.1-0.5-1.1-1.1V179c0-0.6,0.5-1.1,1.1-1.1h0.4c0.6,0,1.1,0.5,1.1,1.1v2.7
		C645.5,182.3,645,182.8,644.4,182.8z"/>
	<line class="st0" x1="644.1" y1="181.7" x2="644.1" y2="185.3"/>
</g>
<g>
	<path class="st0" d="M796.9,209.5h5.9c0,0,3.9,0,3.4-2.9c0-0.3,0-5.5,0-5.5h3.5c0,0-3.5-15.5-8.2-18.5s-9.8-3.2-14.4-0.5"/>
	<path class="st0" d="M784.2,202.5c0.2,0.3,1.9,5,1.9,6.5s0,7.3,0,7.3"/>
	<line class="st0" x1="799.1" y1="216.3" x2="799.1" y2="209.1"/>
	<circle class="st0" cx="777.5" cy="207.5" r="4.8"/>
	<g>
		<path class="st3" d="M776.4,209v-0.4h0.6v-2.5l-0.6,0.4l-0.2-0.3l1-0.7h0.3v3.1h0.6v0.4H776.4z"/>
	</g>
	<line class="st0" x1="780.8" y1="200.8" x2="782.8" y2="200.8"/>
	<g>
		<line class="st0" x1="779.9" y1="197.8" x2="783.7" y2="197.8"/>
		<line class="st0" x1="780.3" y1="199.3" x2="783.3" y2="199.3"/>
		<g>
			<path class="st0" d="M781.8,185.9c2.4,0,4.4,2,4.4,4.4c0,0.9-0.3,1.8-0.8,2.6l0,0l0,0c-0.9,1.4-1.4,2.5-1.6,3.4H782h-0.1h-1.8
				c-0.2-1-0.7-2-1.6-3.4l0,0l0,0c-0.5-0.7-0.8-1.6-0.8-2.6C777.5,187.8,779.4,185.9,781.8,185.9"/>
			<line class="st0" x1="774.8" y1="192.2" x2="776.4" y2="191.7"/>
			<line class="st0" x1="787" y1="188.4" x2="788.6" y2="187.9"/>
			<line class="st0" x1="776.6" y1="188.4" x2="775" y2="187.8"/>
			<line class="st0" x1="778.6" y1="185.8" x2="777.7" y2="184.4"/>
			<line class="st0" x1="788.8" y1="192.2" x2="787.2" y2="191.7"/>
			<line class="st0" x1="785" y1="185.8" x2="786" y2="184.4"/>
			<line class="st0" x1="781.8" y1="183.1" x2="781.8" y2="184.8"/>
		</g>
	</g>
</g>
<g>
	<circle class="st0" cx="621.5" cy="364.5" r="4.7"/>
	<g>
		<path class="st3" d="M620.7,365.9v-3.5h0.5v3h1.3v0.5H620.7z"/>
	</g>
	<line class="st0" x1="638.5" y1="370.5" x2="638.5" y2="363.7"/>
	<line class="st0" x1="638.5" y1="370.5" x2="638.5" y2="363.7"/>
	<g>
		<path class="st0" d="M618.4,358.5c-0.9-2.3-1.9-5.9-0.6-8.9c0,0,0.9-2.9,4-4.6c3.6-1.9,7.4-1.9,11,0.4s6.3,14.2,6.3,14.2h-2.7
			c0,0,0,4,0,4.2c0.4,2.3-2.6,2.3-2.6,2.3h-4.5"/>
		<line class="st0" x1="631" y1="372.6" x2="631" y2="365.8"/>
	</g>
	<path class="st0" d="M628.2,343.7c0.3-0.3,0.7-0.5,1.1-0.7c3.6-1.9,7.4-1.9,11,0.4s6.3,14.2,6.3,14.2h-2.7c0,0,0,4,0,4.2
		c0.4,2.3-2.6,2.3-2.6,2.3h-4.5"/>
	<path class="st0" d="M628.2,343.7c0.3-0.3,0.7-0.5,1.1-0.7c3.6-1.9,7.4-1.9,11,0.4s6.3,14.2,6.3,14.2h-2.7c0,0,0,4,0,4.2
		c0.4,2.3-2.6,2.3-2.6,2.3h-4.5"/>
	<path class="st0" d="M635.7,341.7c0.3-0.3,0.7-0.5,1.1-0.7c3.6-1.9,7.4-1.9,11,0.4s6.3,14.2,6.3,14.2h-2.7c0,0,0,4,0,4.2
		c0.4,2.3-2.6,2.3-2.6,2.3h-4.5"/>
	<path class="st0" d="M635.7,341.7c0.3-0.3,0.7-0.5,1.1-0.7c3.6-1.9,7.4-1.9,11,0.4s6.3,14.2,6.3,14.2h-2.7c0,0,0,4,0,4.2
		c0.4,2.3-2.6,2.3-2.6,2.3h-4.5"/>
</g>
<g>
	<path class="st1" d="M589.2,343.4l1.1,2.1l-8.7,4.8l2.4,4.3l-1.8,1l-3.5-6.4L589.2,343.4z"/>
	<path class="st1" d="M592.2,354.9c1.2,1.9,0.7,3.7-1.4,5c-0.4,0.2-0.9,0.5-1.3,0.7l-2.6-4.1c-1,0.8-1.1,1.6-0.5,2.5
		c0.4,0.7,1.1,1.3,1.7,1.8l-1.2,1.5c-0.8-0.6-1.6-1.3-2.2-2.3c-1.4-2.2-0.9-4.2,1.6-5.8C588.8,352.6,590.9,352.9,592.2,354.9z
		 M589.8,357.9c0.9-0.6,1.2-1.3,0.7-2c-0.5-0.8-1.3-0.8-2.2-0.3L589.8,357.9z"/>
	<path class="st1" d="M593.7,363.6c0.3,0.4,0.5,0.7,0.7,1.1l0.2-0.2c0.8-0.6,0.9-1.1,0.2-2.1c-0.4-0.6-1.1-1.3-1.6-1.8l1.3-1.4
		c0.6,0.6,1.4,1.3,2,2.2c1.3,1.9,1.3,3.5-0.4,4.7l-4.7,3.3l-0.9-1.3l0.4-0.6c-0.6-0.2-1.4-0.6-2.1-1.5c-0.9-1.3-0.9-3,0.5-4
		C590.8,361.2,592.3,361.6,593.7,363.6z M590.6,365.5c0.3,0.5,0.9,0.8,1.3,0.9l1.3-0.9c-0.2-0.3-0.5-0.8-0.6-1
		c-0.5-0.8-1.1-1-1.7-0.6C590.2,364.3,590.1,364.9,590.6,365.5z"/>
	<path class="st1" d="M595.8,368.3c2.4-1.9,4.4-1.8,5.9,0c0.3,0.4,0.6,0.9,0.8,1.2l2.6-2.1l1.4,1.7l-9.4,7.5l-1-1.2l0.3-0.5
		c-0.7-0.2-1.4-0.5-2-1.2C593.2,372.1,593.5,370.2,595.8,368.3z M597.4,373.7l3.7-2.9c-0.2-0.3-0.4-0.7-0.6-1
		c-0.8-1-1.7-0.9-3.2,0.3c-1.4,1.2-1.8,1.9-1,2.8C596.5,373.2,597,373.5,597.4,373.7z"/>
	<path class="st1" d="M607.4,375c1.5,1.7,1.3,3.5-0.5,5.2c-0.3,0.3-0.8,0.7-1.2,0.9l-3.2-3.6c-0.8,0.9-0.8,1.7,0,2.6
		c0.5,0.6,1.3,1.1,2,1.4l-0.9,1.7c-0.9-0.4-1.8-1-2.5-1.8c-1.8-2-1.6-4,0.6-6C603.7,373.3,605.8,373.2,607.4,375z M605.6,378.3
		c0.8-0.8,0.9-1.4,0.3-2.1s-1.4-0.6-2.2,0L605.6,378.3z"/>
	<path class="st1" d="M610.6,378.7l1.1,1.1l-0.5,0.9c1.1-0.1,1.9,0.3,2.6,0.9c0.2,0.2,0.5,0.5,0.6,0.8l-1.5,1.3
		c-0.2-0.3-0.4-0.5-0.6-0.7c-0.7-0.7-1.2-0.9-1.9-0.9l-4.3,4.3l-1.6-1.6L610.6,378.7z"/>
	<path class="st1" d="M610.2,387.7c0.4,0.6,1.1,1.3,1.6,1.9c0.7,0.6,1.3,0.9,1.6,0.5c0.4-0.4-0.1-1-0.7-2.1c-0.7-1.3-1-2.4,0-3.5
		c1.2-1.3,2.8-1.1,4.5,0.5c0.6,0.5,1.2,1.2,1.6,1.8l-1.5,1.2c-0.4-0.5-1-1.2-1.5-1.7c-0.7-0.6-1.2-0.8-1.5-0.5
		c-0.4,0.4,0.2,1,0.7,2.1c0.7,1.4,0.9,2.5,0,3.5c-1.2,1.3-2.7,1.2-4.7-0.6c-0.6-0.6-1.3-1.4-1.8-2L610.2,387.7z"/>
	<path class="st1" d="M625.8,388l1.9,1.4l-6.1,7.9l3.9,3l-1.3,1.6l-5.7-4.4L625.8,388z"/>
	<path class="st1" d="M631,400.3c0.4,0.3,0.7,0.5,1,0.8l0.2-0.2c0.5-0.8,0.5-1.4-0.5-2c-0.6-0.4-1.5-0.8-2.1-1.1l0.8-1.7
		c0.8,0.3,1.7,0.7,2.6,1.3c1.9,1.3,2.4,2.8,1.2,4.5l-3.3,4.8l-1.3-0.9l0.2-0.7c-0.6,0-1.6,0-2.4-0.7c-1.3-0.9-1.9-2.5-0.9-3.9
		C627.4,399,629.1,398.9,631,400.3z M628.7,403.2c0.5,0.3,1.1,0.4,1.5,0.4l0.9-1.3c-0.3-0.3-0.7-0.6-1-0.7c-0.8-0.5-1.4-0.5-1.8,0.1
		C628,402.2,628.1,402.8,628.7,403.2z"/>
	<path class="st1" d="M639.1,397.6l1.9,1.1l-1.9,3.1c0.6,0.1,1.2,0.3,1.8,0.6c1.9,1.2,2,3.1,0.5,5.6c-1.6,2.7-3.4,3.2-5.7,1.8
		c-1.1-0.7-2-1.6-2.6-2.3L639.1,397.6z M636.8,408.2c1.1,0.6,1.8,0.3,2.8-1.4c1-1.6,1-2.4-0.1-3c-0.4-0.2-0.8-0.4-1.3-0.5l-2.5,4.1
		C636,407.7,636.4,408,636.8,408.2z"/>
	<path class="st1" d="M750.8,425.6c2.8-4.1,3.8-6.3,3.4-7.8c-0.3-1-1.1-1.5-2.4-1.1c-0.9,0.2-1.8,0.8-2.5,1.3l-1.1-1.6
		c0.8-0.7,2-1.3,3.2-1.6c2.4-0.6,4.5,0.2,5.1,2.5c0.6,2.4-0.8,4.9-2.3,7.2v0.1l4.1-1.1l0.5,2l-7.6,2L750.8,425.6z"/>
	<path class="st1" d="M761.2,412c1.1-0.6,2.3-1.2,3.3-1.6c3.8-1.5,6.2-0.1,7.7,3.7c1.5,3.9,0.6,6.4-3.4,7.9c-0.8,0.3-2.2,0.7-3.4,1
		L761.2,412z M768.1,420.2c2.6-1,2.9-2.4,1.9-5.1s-2.2-3.6-4.7-2.7c-0.3,0.1-0.8,0.3-1.1,0.5l2.9,7.6
		C767.4,420.4,767.7,420.3,768.1,420.2z"/>
	<path class="st1" d="M776.7,412.9c0.4-0.2,0.8-0.3,1.2-0.5l-0.1-0.3c-0.4-0.9-0.9-1.1-2-0.6c-0.6,0.3-1.5,0.8-2,1.3l-1.1-1.6
		c0.7-0.5,1.5-1.1,2.5-1.6c2.1-1,3.7-0.6,4.5,1.3l2.4,5.2l-1.4,0.7l-0.5-0.5c-0.3,0.6-0.8,1.3-1.8,1.8c-1.5,0.7-3.1,0.4-3.8-1.3
		C773.8,415.3,774.6,413.9,776.7,412.9z M778.1,416.4c0.5-0.2,1-0.7,1.2-1.1l-0.6-1.4c-0.4,0.1-0.9,0.3-1.1,0.4
		c-0.8,0.4-1.2,0.9-0.9,1.6C776.8,416.5,777.4,416.7,778.1,416.4z"/>
	<path class="st1" d="M779.4,408l1.9-1c1.4,1.7,3.2,3.6,4.6,5h0.1c-0.4-2.2-0.9-4.5-1.4-6.8l1.9-1c1,4.2,1.8,8.9,2.2,12.5l-1.9,1
		c-0.1-1.1-0.3-2.3-0.5-3.6l-0.8,0.4C784.1,413.1,781.3,410.2,779.4,408z"/>
	<path class="st1" d="M789.7,398.3l2-1.3l5.4,8.4l4.1-2.7l1.1,1.7l-6.1,4L789.7,398.3z"/>
	<path class="st1" d="M801,394.6c1.8-1.3,3.6-1,5.1,1c0.3,0.3,0.6,0.9,0.8,1.3l-3.9,2.9c0.8,0.9,1.6,1,2.5,0.3
		c0.6-0.5,1.2-1.2,1.6-1.8l1.6,1.1c-0.5,0.8-1.2,1.7-2.1,2.3c-2.1,1.6-4.1,1.2-5.9-1.2C798.9,398.1,799,396,801,394.6z M804.1,396.7
		c-0.7-0.9-1.3-1.1-2.1-0.5c-0.8,0.6-0.7,1.3-0.2,2.2L804.1,396.7z"/>
	<path class="st1" d="M809.5,392.4c0.4-0.3,0.7-0.5,1.1-0.7l-0.2-0.2c-0.6-0.8-1.2-0.8-2.1-0.1c-0.5,0.4-1.2,1.2-1.6,1.7l-1.5-1.2
		c0.5-0.6,1.2-1.5,2-2.1c1.8-1.5,3.4-1.5,4.7,0.1l3.7,4.4l-1.2,1l-0.6-0.4c-0.1,0.6-0.5,1.5-1.3,2.2c-1.2,1-2.9,1.1-4-0.2
		C807.3,395.5,807.6,393.9,809.5,392.4z M811.6,395.4c0.5-0.4,0.7-1,0.8-1.4l-1-1.2c-0.3,0.2-0.8,0.5-1,0.7
		c-0.7,0.6-0.9,1.2-0.4,1.8C810.5,395.9,811.1,395.9,811.6,395.4z"/>
	<path class="st1" d="M811.4,386.4l1.2-1.1l0.8,0.6c0-1.1,0.3-1.9,1-2.5c0.2-0.2,0.5-0.5,0.8-0.6l1.2,1.6c-0.3,0.2-0.5,0.4-0.7,0.6
		c-0.7,0.6-1,1.2-1,1.9l4.1,4.5l-1.6,1.5L811.4,386.4z"/>
	<path class="st1" d="M815.9,382.2l1.1-1.1l0.6,0.3c0.2-0.9,0.6-1.8,1.3-2.4c1.4-1.5,3-1.1,4.2,0.1l4.2,4.1l-1.6,1.6l-4-3.9
		c-0.6-0.6-1.2-0.7-1.8,0c-0.4,0.4-0.7,1-0.8,1.4l4.6,4.5l-1.6,1.6L815.9,382.2z"/>
	<path class="st1" d="M819.7,373.4l1.5-1.6l1.6,1.4l-1.5,1.6L819.7,373.4z M822.2,375.7l1.5-1.6l6.4,5.8l-1.5,1.6L822.2,375.7z"/>
	<path class="st1" d="M825,372.6l1-1.2l0.6,0.3c0.1-0.9,0.4-1.8,1-2.5c1.3-1.6,2.8-1.4,4.1-0.3l4.5,3.7l-1.4,1.7l-4.3-3.5
		c-0.7-0.5-1.2-0.6-1.8,0.1c-0.4,0.4-0.6,1-0.7,1.5l5,4.1l-1.4,1.7L825,372.6z"/>
	<path class="st1" d="M840.8,369.3c0.5-0.7,0.9-1.5-0.1-2.2l-0.5-0.4c-0.1,0.5-0.3,1.1-0.8,1.6c-1.4,1.9-3.3,1.8-5.5,0.2
		c-2.6-1.9-2.8-3.8-1.3-5.9c0.8-1,1.7-1.8,2.5-2.3l6.7,4.9c2.2,1.6,1.9,3.3,0.5,5.3c-0.5,0.7-1.1,1.3-1.7,1.8l-1.4-1.3
		C839.7,370.6,840.4,369.9,840.8,369.3z M838.7,365.6l-3.7-2.7c-0.3,0.2-0.6,0.6-0.8,0.8c-0.8,1-0.5,1.8,1.1,3
		c1.4,1,2.2,1.1,2.9,0.1C838.4,366.5,838.6,366.1,838.7,365.6z"/>
	<path class="st1" d="M835.4,352.9l1.2-2l8.6,5.1l2.5-4.2l1.8,1.1l-3.7,6.2L835.4,352.9z"/>
	<path class="st1" d="M846.9,346.3c0.2-0.4,0.4-0.7,0.7-1.1l-0.3-0.1c-0.9-0.4-1.4-0.3-1.9,0.7c-0.3,0.6-0.7,1.6-0.8,2.2l-1.8-0.5
		c0.2-0.8,0.5-1.8,1-2.8c1.1-2,2.5-2.7,4.4-1.8l5.1,2.7l-0.7,1.4l-0.7-0.1c0.1,0.6,0.1,1.5-0.4,2.5c-0.7,1.4-2.2,2.2-3.8,1.4
		C846.1,350,845.8,348.4,846.9,346.3z M850.1,348.2c0.3-0.5,0.3-1.2,0.3-1.6l-1.4-0.7c-0.2,0.3-0.5,0.8-0.6,1
		c-0.4,0.8-0.4,1.5,0.3,1.8C849.2,349.1,849.8,348.8,850.1,348.2z"/>
	<path class="st1" d="M843.3,338.6l0.9-2l3.3,1.5c0-0.6,0.1-1.2,0.4-1.9c0.9-2,2.8-2.4,5.5-1.2c2.9,1.3,3.6,3,2.5,5.4
		c-0.5,1.2-1.3,2.2-2,2.9L843.3,338.6z M854.1,339.6c0.5-1.1,0.1-1.8-1.7-2.6c-1.7-0.8-2.5-0.7-3,0.5c-0.2,0.4-0.3,0.9-0.3,1.3
		l4.4,2C853.7,340.4,854,340,854.1,339.6z"/>
</g>
<g>
	<path class="st1" d="M593.7,188.1l1.4-1.9l4.2,3.3l0,0c-0.5-2.2-1-4.5-1.6-6.7l1.7-2.2h0.1c0.6,2.2,1.1,4.6,1.5,6.9
		c2.5,0.2,5.3,0.3,8,0.3v0.1l-1.8,2.3c-2.2-0.1-4.4-0.2-6.5-0.4l-0.4,0.5l4.3,3.3l-1.4,1.9L593.7,188.1z"/>
	<path class="st1" d="M604.8,179.7c1.5-1.7,3.3-1.7,5.2-0.1c0.3,0.3,0.8,0.7,1,1.1l-3.2,3.6c1,0.7,1.8,0.6,2.6-0.2
		c0.5-0.6,0.9-1.5,1.2-2.1l1.8,0.7c-0.3,0.9-0.8,1.9-1.6,2.7c-1.8,2-3.8,2.1-6,0.1C603.5,183.6,603.2,181.5,604.8,179.7z
		 M608.3,181.1c-0.8-0.7-1.5-0.8-2.1-0.1s-0.4,1.4,0.3,2.2L608.3,181.1z"/>
	<path class="st1" d="M607.8,176.5l1.6-1.6c1.9,1.2,4.1,2.5,5.9,3.5l0.1-0.1c-1-2-2.2-4.1-3.3-6.1l1.5-1.5c2.2,3.8,4.4,7.9,5.8,11.2
		l-1.5,1.5c-0.5-1-1-2.1-1.5-3.3l-0.6,0.6C613.8,180.1,610.3,178.1,607.8,176.5z"/>
	<path class="st1" d="M614.7,169.7l1.2-1l0.6,0.4c0.2-0.9,0.7-1.7,1.4-2.4c1.5-1.4,3-0.9,4.1,0.3l3.9,4.4l-1.7,1.5l-3.7-4.2
		c-0.6-0.6-1.1-0.8-1.8-0.2c-0.4,0.4-0.7,0.9-0.9,1.4l4.3,4.8l-1.7,1.5L614.7,169.7z"/>
	<path class="st1" d="M624.4,161.3c2.3-1.8,4.2-1.1,5.9,1.1c1.7,2.2,1.9,4.2-0.3,6c-2.3,1.8-4.2,1.1-5.9-1.1
		C622.3,165.1,622.1,163.1,624.4,161.3z M628.7,166.9c1.2-0.9,0.6-1.9-0.2-3.1c-0.9-1.1-1.7-1.9-2.9-1c-1.2,0.9-0.6,1.9,0.2,3.1
		S627.5,167.8,628.7,166.9z"/>
	<path class="st1" d="M630.3,159.4l-1.1,0.8l-0.9-1.3l1.1-0.9l-1.3-2.1l1.6-1.1l1.4,2l1.8-1.2l1.1,1.5l-1.8,1.2l2.4,3.5
		c0.4,0.5,0.6,0.5,1,0.3c0.3-0.2,0.7-0.6,0.9-0.9l1.4,1.2c-0.3,0.5-0.8,1.1-1.5,1.5c-1.2,0.9-2.5,0.8-3.6-0.7L630.3,159.4z"/>
	<path class="st1" d="M636.8,152.5c1.9-1.2,3.7-0.7,5,1.4c0.2,0.4,0.5,0.9,0.7,1.3l-4.1,2.6c0.8,1,1.6,1.1,2.5,0.5
		c0.7-0.4,1.3-1.1,1.8-1.7l1.5,1.2c-0.6,0.8-1.3,1.6-2.3,2.2c-2.2,1.4-4.2,0.9-5.8-1.6C634.5,155.9,634.8,153.8,636.8,152.5z
		 M639.8,154.9c-0.6-0.9-1.3-1.2-2-0.7c-0.8,0.5-0.8,1.3-0.3,2.2L639.8,154.9z"/>
	<path class="st1" d="M764.9,137.9l-2.5,0.1l-0.2-1.8l3.8-0.5l1.9,0.7l-4.1,11.3l-2.2-0.8L764.9,137.9z"/>
	<path class="st1" d="M775.2,139.5c1.2,0.3,2.5,0.8,3.4,1.3c3.7,1.8,4.4,4.4,2.6,8.1c-1.8,3.8-4.2,4.9-8,3.1c-0.7-0.3-2-1-3.1-1.7
		L775.2,139.5z M774.1,150c2.5,1.2,3.8,0.4,5-2.2c1.2-2.6,1.1-4.1-1.4-5.3c-0.3-0.1-0.8-0.3-1.2-0.5l-3.5,7.4
		C773.4,149.7,773.8,149.9,774.1,150z"/>
	<path class="st1" d="M785,151.8c0.4,0.2,0.7,0.4,1.1,0.7l0.1-0.3c0.5-0.8,0.3-1.4-0.7-2c-0.6-0.3-1.6-0.7-2.2-0.9l0.6-1.8
		c0.8,0.2,1.8,0.6,2.7,1.1c2,1.1,2.6,2.6,1.6,4.4l-2.8,5l-1.4-0.8l0.1-0.7c-0.6,0.1-1.6,0.1-2.5-0.4c-1.4-0.8-2.1-2.3-1.2-3.8
		C781.3,150.9,782.9,150.6,785,151.8z M783,154.9c0.5,0.3,1.2,0.3,1.6,0.3l0.8-1.4c-0.3-0.2-0.8-0.5-1-0.7c-0.8-0.5-1.5-0.4-1.8,0.2
		C782.2,154,782.4,154.6,783,154.9z"/>
	<path class="st1" d="M790.9,151.2l1.9,1.2c-0.8,2.1-1.6,4.5-2.1,6.5h0.1c1.7-1.4,3.5-3,5.2-4.5l1.8,1.2c-3.2,2.9-6.8,5.9-9.7,8.1
		l-1.8-1.2c0.9-0.7,1.9-1.4,2.9-2.2l-0.8-0.5C788.6,157.8,789.9,154,790.9,151.2z"/>
	<path class="st1" d="M804.9,156.6l1.9,1.4l-6.1,7.9l3.9,3l-1.3,1.6l-5.7-4.5L804.9,156.6z"/>
	<path class="st1" d="M812.1,166.6c1.7,1.5,1.7,3.3,0.1,5.2c-0.3,0.3-0.7,0.8-1.1,1l-3.6-3.2c-0.7,1-0.6,1.8,0.2,2.6
		c0.6,0.5,1.5,0.9,2.1,1.2l-0.7,1.8c-0.9-0.3-1.9-0.8-2.7-1.5c-2-1.7-2.1-3.8-0.1-6C808.2,165.4,810.3,165,812.1,166.6z
		 M810.8,170.2c0.7-0.8,0.7-1.5,0.1-2.1c-0.7-0.6-1.4-0.4-2.2,0.3L810.8,170.2z"/>
	<path class="st1" d="M815.8,174.8c0.3,0.3,0.6,0.6,0.9,1l0.2-0.2c0.7-0.7,0.7-1.3-0.1-2.1c-0.5-0.5-1.3-1.1-1.9-1.5l1.1-1.6
		c0.7,0.4,1.6,1,2.3,1.8c1.6,1.6,1.9,3.2,0.4,4.7l-4,4.1l-1.1-1.1l0.3-0.6c-0.6-0.1-1.5-0.3-2.3-1.1c-1.1-1.1-1.4-2.8-0.2-4
		C812.5,172.9,814.1,173.1,815.8,174.8z M813,177.3c0.4,0.4,1,0.6,1.4,0.7l1.1-1.1c-0.3-0.3-0.6-0.7-0.8-0.9
		c-0.7-0.7-1.3-0.8-1.8-0.3C812.4,176.2,812.5,176.8,813,177.3z"/>
	<path class="st1" d="M822.1,176.4l1.1,1.2l-0.6,0.8c1.1,0,1.9,0.3,2.5,1c0.2,0.2,0.5,0.5,0.6,0.8l-1.6,1.3
		c-0.2-0.3-0.4-0.5-0.6-0.7c-0.6-0.7-1.2-1-1.9-1l-4.5,4.1l-1.5-1.6L822.1,176.4z"/>
	<path class="st1" d="M826.4,181.2l1,1.2l-0.4,0.5c0.9,0.2,1.7,0.8,2.3,1.5c1.3,1.6,0.8,3.1-0.5,4.1l-4.5,3.7l-1.4-1.7l4.3-3.5
		c0.7-0.5,0.8-1.1,0.2-1.8c-0.4-0.4-0.9-0.8-1.3-1l-5,4.1l-1.4-1.7L826.4,181.2z"/>
	<path class="st1" d="M832.3,188.5l1.3,1.8l-6.9,5.2l-1.3-1.8L832.3,188.5z M835,186.4l1.3,1.8l-1.7,1.3l-1.3-1.8L835,186.4z"/>
	<path class="st1" d="M835,192l0.9,1.3l-0.4,0.5c0.9,0.3,1.6,0.9,2.2,1.7c1.1,1.7,0.5,3.1-0.9,4.1l-4.8,3.3l-1.2-1.8l4.6-3.1
		c0.7-0.5,0.9-1,0.4-1.8c-0.3-0.5-0.8-0.9-1.2-1.1l-5.4,3.6l-1.2-1.8L835,192z"/>
	<path class="st1" d="M832.8,207.6c0.4,0.7,1,1.4,2,0.8l0.5-0.3c-0.4-0.3-0.8-0.7-1.2-1.4c-1.2-2-0.3-3.7,2-5.1
		c2.8-1.6,4.6-1,5.9,1.2c0.7,1.1,1,2.3,1.2,3.2l-7.2,4.2c-2.4,1.4-3.8,0.4-5-1.6c-0.5-0.8-0.8-1.5-1-2.3l1.8-0.8
		C832.1,206.1,832.5,207,832.8,207.6z M837,207.2l4-2.3c-0.1-0.3-0.3-0.7-0.5-1c-0.7-1.1-1.5-1.2-3.1-0.2c-1.5,0.9-1.9,1.6-1.3,2.6
		C836.3,206.6,836.6,206.9,837,207.2z"/>
	<path class="st1" d="M850,210.5l1,2.1l-9,4.3l2.1,4.4l-1.9,0.9l-3.1-6.6L850,210.5z"/>
	<path class="st1" d="M848.6,224c0.2,0.4,0.3,0.8,0.4,1.2l0.3-0.1c0.9-0.4,1.1-0.9,0.7-2c-0.3-0.6-0.8-1.5-1.2-2.1l1.6-1
		c0.5,0.7,1,1.6,1.4,2.6c0.9,2.1,0.4,3.7-1.5,4.5l-5.3,2.1l-0.6-1.5l0.5-0.5c-0.5-0.3-1.3-0.9-1.7-1.9c-0.6-1.5-0.2-3.1,1.4-3.8
		C846.4,221,847.8,221.8,848.6,224z M845.1,225.2c0.2,0.6,0.7,1,1,1.2l1.4-0.6c-0.1-0.4-0.3-0.9-0.4-1.2c-0.3-0.9-0.9-1.2-1.6-1
		C845,223.9,844.8,224.5,845.1,225.2z"/>
	<path class="st1" d="M857,227l0.7,2.1l-3.4,1.1c0.4,0.4,0.7,1,1,1.7c0.7,2.1-0.5,3.7-3.3,4.6c-3,1-4.6,0.2-5.5-2.4
		c-0.4-1.2-0.5-2.5-0.5-3.5L857,227z M848.3,233.6c0.4,1.2,1.2,1.4,3,0.8s2.3-1.2,1.9-2.4c-0.1-0.4-0.4-0.8-0.6-1.2l-4.5,1.5
		C848.1,232.7,848.2,233.2,848.3,233.6z"/>
</g>
<g class="st4">
	<path class="st5" d="M532.6,479.6l-20.3,37.1l20.8,38.1l0,0c36,4.7,63.9,34.9,65.1,71.8l37.5-20.5l0,0l37.4,20.4
		C671.8,548,610.2,484.3,532.6,479.6z"/>
	<path class="st5" d="M411,640.1l38.1-20.8l0,0c4.7-36,34.9-63.9,71.8-65.1l-20.5-37.5l0,0l20.4-37.4
		c-78.5,1.3-142.2,62.9-147,140.5L411,640.1z"/>
	<path class="st5" d="M534.4,741.4l-20.8-38.1l0,0c-36-4.7-63.9-34.9-65.1-71.8L411,652l0,0l-37.4-20.4c1.3,78.5,63,142.3,140.6,147
		L534.4,741.4z"/>
	<path class="st5" d="M635.8,618l-38.1,20.9l0,0c-4.7,36-34.9,63.8-71.8,65l20.5,37.5l0,0L526,778.8c78.4-1.3,142.2-63,146.9-140.5
		L635.8,618z"/>
</g>
<g class="st4">
	<path class="st5" d="M727.5,150l-23.6,43.3l0,0c-40.8,5.3-72.5,39.6-73.8,81.5l-42.6-23.3l0,0l-42.4,23.1
		c1.5-89,71.4-161.4,159.4-166.7L727.5,150z"/>
	<path class="st5" d="M842.6,290l-43.3-23.7l0,0c-5.3-40.8-39.6-72.4-81.5-73.7l23.3-42.6l0,0l-23.2-42.4
		c89,1.5,161.4,71.4,166.8,159.4L842.6,290z"/>
	<path class="st5" d="M702.5,405.1l23.7-43.3l0,0c40.8-5.3,72.4-39.6,73.7-81.5l42.6,23.3l0,0l42.4-23.2
		c-1.5,89-71.4,161.4-159.5,166.8L702.5,405.1z"/>
	<path class="st5" d="M587.5,265l43.3,23.7l0,0c5.3,40.8,39.6,72.4,81.5,73.7L689,405l0,0l23.1,42.4c-89-1.5-161.3-71.4-166.7-159.4
		L587.5,265z"/>
</g>
<g class="st4">
	<path class="st5" d="M279,432c-47.7,1.3-95.1-19.5-126.3-59.3L88,378.9l-30.5,59.5c56.7,76.3,146.7,114.6,236,108.5l-38.5-52
		L279,432z"/>
	<path class="st5" d="M138.1,203.3c11.4-21.3,28.1-40.2,49.4-54.7c21.2-14.4,44.6-22.8,68.4-25.7l24-62.6L241.7,8.6
		c-41.4,5-82.4,19.7-119.3,44.8C85,78.8,56,111.9,36.1,149.2l61.7-2.7L138.1,203.3z"/>
	<path class="st5" d="M45.1,420.5l30.6-59.6l64.7-6.3c-23.8-41-26.8-89-11.5-131l-40.7-57.7l-61.6,2.7C-8,248-3.8,342.3,45.1,420.5z
		"/>
	<path class="st5" d="M276.9,121.7c44.9,0.7,88.9,20.8,118.7,57.9l65.9-6.3l29.7-58C436.5,41.7,350.5,3.5,264.2,6.7l37.3,50.6
		L276.9,121.7z"/>
	<path class="st5" d="M533.3,198.1c-6.8-22.5-16.5-43.8-29.6-64.8l-29.8,58l-65.6,6.4c23.7,39.8,27.5,86.5,13.9,127.9l42.7,60.6
		l58.4-2.6c4.1-9.6,7.6-19.4,10.6-29.3c-12.3-23.5-19.2-50.2-19.2-78.5C514.5,247.8,521.3,221.4,533.3,198.1z"/>
	<path class="st5" d="M473.8,460c15.9-17.3,29.3-36.4,40-56.8l-58.6,2.6l-41.8-59.2c-11.5,22.9-28.8,43.2-51.4,58.6
		c-19.1,13-40.2,21.1-61.6,24.7l-23.7,62l38.8,52.6c21.6-3.3,43-9.2,63.7-17.9C400.2,493.2,434,468.7,473.8,460z"/>
</g>
</svg>
